PWD C:/Users/danie/Desktop/kaobook
INPUT c:/texlive/2020/texmf.cnf
INPUT c:/texlive/2020/texmf-dist/web2c/texmf.cnf
INPUT c:/texlive/2020/texmf-var/web2c/pdftex/pdflatex.fmt
INPUT main.tex
OUTPUT main.log
INPUT kaobook.cls
INPUT kaobook.cls
INPUT c:/texlive/2020/texmf-dist/tex/latex/koma-script/scrbook.cls
INPUT c:/texlive/2020/texmf-dist/tex/latex/koma-script/scrbook.cls
INPUT c:/texlive/2020/texmf-dist/tex/latex/koma-script/scrkbase.sty
INPUT c:/texlive/2020/texmf-dist/tex/latex/koma-script/scrkbase.sty
INPUT c:/texlive/2020/texmf-dist/tex/latex/koma-script/scrbase.sty
INPUT c:/texlive/2020/texmf-dist/tex/latex/koma-script/scrbase.sty
INPUT c:/texlive/2020/texmf-dist/tex/latex/graphics/keyval.sty
INPUT c:/texlive/2020/texmf-dist/tex/latex/graphics/keyval.sty
INPUT c:/texlive/2020/texmf-dist/tex/latex/koma-script/scrlfile.sty
INPUT c:/texlive/2020/texmf-dist/tex/latex/koma-script/scrlfile.sty
INPUT c:/texlive/2020/texmf-dist/tex/latex/koma-script/tocbasic.sty
INPUT c:/texlive/2020/texmf-dist/tex/latex/koma-script/tocbasic.sty
INPUT c:/texlive/2020/texmf-dist/tex/latex/koma-script/scrsize10pt.clo
INPUT c:/texlive/2020/texmf-dist/tex/latex/koma-script/scrsize10pt.clo
INPUT c:/texlive/2020/texmf-dist/tex/latex/koma-script/typearea.sty
INPUT c:/texlive/2020/texmf-dist/tex/latex/koma-script/typearea.sty
INPUT styles/kao.sty
INPUT styles/kao.sty
INPUT c:/texlive/2020/texmf-dist/tex/latex/etoolbox/etoolbox.sty
INPUT c:/texlive/2020/texmf-dist/tex/latex/etoolbox/etoolbox.sty
INPUT c:/texlive/2020/texmf-dist/tex/latex/tools/calc.sty
INPUT c:/texlive/2020/texmf-dist/tex/latex/tools/calc.sty
INPUT c:/texlive/2020/texmf-dist/tex/latex/xifthen/xifthen.sty
INPUT c:/texlive/2020/texmf-dist/tex/latex/xifthen/xifthen.sty
INPUT c:/texlive/2020/texmf-dist/tex/latex/base/ifthen.sty
INPUT c:/texlive/2020/texmf-dist/tex/latex/base/ifthen.sty
INPUT c:/texlive/2020/texmf-dist/tex/latex/ifmtarg/ifmtarg.sty
INPUT c:/texlive/2020/texmf-dist/tex/latex/ifmtarg/ifmtarg.sty
INPUT c:/texlive/2020/texmf-dist/tex/latex/xkeyval/xkeyval.sty
INPUT c:/texlive/2020/texmf-dist/tex/latex/xkeyval/xkeyval.sty
INPUT c:/texlive/2020/texmf-dist/tex/generic/xkeyval/xkeyval.tex
INPUT c:/texlive/2020/texmf-dist/tex/generic/xkeyval/xkvutils.tex
INPUT c:/texlive/2020/texmf-dist/tex/latex/l3packages/xparse/xparse.sty
INPUT c:/texlive/2020/texmf-dist/tex/latex/l3packages/xparse/xparse.sty
INPUT c:/texlive/2020/texmf-dist/tex/latex/l3kernel/expl3.sty
INPUT c:/texlive/2020/texmf-dist/tex/latex/l3kernel/expl3.sty
INPUT c:/texlive/2020/texmf-dist/tex/latex/l3backend/l3backend-pdfmode.def
INPUT c:/texlive/2020/texmf-dist/tex/latex/l3backend/l3backend-pdfmode.def
INPUT c:/texlive/2020/texmf-dist/tex/latex/xpatch/xpatch.sty
INPUT c:/texlive/2020/texmf-dist/tex/latex/xpatch/xpatch.sty
INPUT c:/texlive/2020/texmf-dist/tex/generic/xstring/xstring.sty
INPUT c:/texlive/2020/texmf-dist/tex/generic/xstring/xstring.sty
INPUT c:/texlive/2020/texmf-dist/tex/generic/xstring/xstring.tex
INPUT c:/texlive/2020/texmf-dist/tex/latex/tools/afterpage.sty
INPUT c:/texlive/2020/texmf-dist/tex/latex/tools/afterpage.sty
INPUT c:/texlive/2020/texmf-dist/tex/latex/ragged2e/ragged2e.sty
INPUT c:/texlive/2020/texmf-dist/tex/latex/ragged2e/ragged2e.sty
INPUT c:/texlive/2020/texmf-dist/tex/latex/ms/everysel.sty
INPUT c:/texlive/2020/texmf-dist/tex/latex/ms/everysel.sty
INPUT c:/texlive/2020/texmf-dist/tex/latex/setspace/setspace.sty
INPUT c:/texlive/2020/texmf-dist/tex/latex/setspace/setspace.sty
INPUT c:/texlive/2020/texmf-dist/tex/latex/hyphenat/hyphenat.sty
INPUT c:/texlive/2020/texmf-dist/tex/latex/hyphenat/hyphenat.sty
INPUT c:/texlive/2020/texmf-dist/tex/latex/microtype/microtype.sty
INPUT c:/texlive/2020/texmf-dist/tex/latex/microtype/microtype.sty
INPUT c:/texlive/2020/texmf-dist/tex/latex/microtype/microtype-pdftex.def
INPUT c:/texlive/2020/texmf-dist/tex/latex/microtype/microtype-pdftex.def
INPUT c:/texlive/2020/texmf-dist/tex/latex/microtype/microtype.cfg
INPUT c:/texlive/2020/texmf-dist/tex/latex/microtype/microtype.cfg
INPUT c:/texlive/2020/texmf-dist/tex/latex/microtype/microtype.cfg
INPUT c:/texlive/2020/texmf-dist/tex/latex/needspace/needspace.sty
INPUT c:/texlive/2020/texmf-dist/tex/latex/needspace/needspace.sty
INPUT c:/texlive/2020/texmf-dist/tex/latex/tools/xspace.sty
INPUT c:/texlive/2020/texmf-dist/tex/latex/tools/xspace.sty
INPUT c:/texlive/2020/texmf-dist/tex/latex/xcolor/xcolor.sty
INPUT c:/texlive/2020/texmf-dist/tex/latex/xcolor/xcolor.sty
INPUT c:/texlive/2020/texmf-dist/tex/latex/graphics-cfg/color.cfg
INPUT c:/texlive/2020/texmf-dist/tex/latex/graphics-cfg/color.cfg
INPUT c:/texlive/2020/texmf-dist/tex/latex/graphics-def/pdftex.def
INPUT c:/texlive/2020/texmf-dist/tex/latex/graphics-def/pdftex.def
INPUT c:/texlive/2020/texmf-dist/tex/latex/colortbl/colortbl.sty
INPUT c:/texlive/2020/texmf-dist/tex/latex/colortbl/colortbl.sty
INPUT c:/texlive/2020/texmf-dist/tex/latex/tools/array.sty
INPUT c:/texlive/2020/texmf-dist/tex/latex/tools/array.sty
INPUT c:/texlive/2020/texmf-dist/tex/latex/graphics/dvipsnam.def
INPUT c:/texlive/2020/texmf-dist/tex/latex/graphics/dvipsnam.def
INPUT c:/texlive/2020/texmf-dist/tex/latex/placeins/placeins.sty
INPUT c:/texlive/2020/texmf-dist/tex/latex/placeins/placeins.sty
INPUT c:/texlive/2020/texmf-dist/tex/latex/footmisc/footmisc.sty
INPUT c:/texlive/2020/texmf-dist/tex/latex/footmisc/footmisc.sty
INPUT c:/texlive/2020/texmf-dist/tex/latex/footnotebackref/footnotebackref.sty
INPUT c:/texlive/2020/texmf-dist/tex/latex/footnotebackref/footnotebackref.sty
INPUT c:/texlive/2020/texmf-dist/tex/latex/letltxmacro/letltxmacro.sty
INPUT c:/texlive/2020/texmf-dist/tex/latex/letltxmacro/letltxmacro.sty
INPUT c:/texlive/2020/texmf-dist/tex/latex/hyperref/hyperref.sty
INPUT c:/texlive/2020/texmf-dist/tex/latex/hyperref/hyperref.sty
INPUT c:/texlive/2020/texmf-dist/tex/generic/ltxcmds/ltxcmds.sty
INPUT c:/texlive/2020/texmf-dist/tex/generic/ltxcmds/ltxcmds.sty
INPUT c:/texlive/2020/texmf-dist/tex/generic/iftex/iftex.sty
INPUT c:/texlive/2020/texmf-dist/tex/generic/iftex/iftex.sty
INPUT c:/texlive/2020/texmf-dist/tex/latex/pdftexcmds/pdftexcmds.sty
INPUT c:/texlive/2020/texmf-dist/tex/latex/pdftexcmds/pdftexcmds.sty
INPUT c:/texlive/2020/texmf-dist/tex/generic/infwarerr/infwarerr.sty
INPUT c:/texlive/2020/texmf-dist/tex/generic/infwarerr/infwarerr.sty
INPUT c:/texlive/2020/texmf-dist/tex/generic/kvsetkeys/kvsetkeys.sty
INPUT c:/texlive/2020/texmf-dist/tex/generic/kvsetkeys/kvsetkeys.sty
INPUT c:/texlive/2020/texmf-dist/tex/generic/kvdefinekeys/kvdefinekeys.sty
INPUT c:/texlive/2020/texmf-dist/tex/generic/kvdefinekeys/kvdefinekeys.sty
INPUT c:/texlive/2020/texmf-dist/tex/generic/pdfescape/pdfescape.sty
INPUT c:/texlive/2020/texmf-dist/tex/generic/pdfescape/pdfescape.sty
INPUT c:/texlive/2020/texmf-dist/tex/latex/hycolor/hycolor.sty
INPUT c:/texlive/2020/texmf-dist/tex/latex/hycolor/hycolor.sty
INPUT c:/texlive/2020/texmf-dist/tex/latex/auxhook/auxhook.sty
INPUT c:/texlive/2020/texmf-dist/tex/latex/auxhook/auxhook.sty
INPUT c:/texlive/2020/texmf-dist/tex/latex/kvoptions/kvoptions.sty
INPUT c:/texlive/2020/texmf-dist/tex/latex/kvoptions/kvoptions.sty
INPUT c:/texlive/2020/texmf-dist/tex/latex/hyperref/pd1enc.def
INPUT c:/texlive/2020/texmf-dist/tex/latex/hyperref/pd1enc.def
INPUT c:/texlive/2020/texmf-dist/tex/generic/intcalc/intcalc.sty
INPUT c:/texlive/2020/texmf-dist/tex/generic/intcalc/intcalc.sty
INPUT c:/texlive/2020/texmf-dist/tex/generic/etexcmds/etexcmds.sty
INPUT c:/texlive/2020/texmf-dist/tex/generic/etexcmds/etexcmds.sty
INPUT c:/texlive/2020/texmf-dist/tex/latex/url/url.sty
INPUT c:/texlive/2020/texmf-dist/tex/latex/url/url.sty
INPUT c:/texlive/2020/texmf-dist/tex/generic/bitset/bitset.sty
INPUT c:/texlive/2020/texmf-dist/tex/generic/bitset/bitset.sty
INPUT c:/texlive/2020/texmf-dist/tex/generic/bigintcalc/bigintcalc.sty
INPUT c:/texlive/2020/texmf-dist/tex/generic/bigintcalc/bigintcalc.sty
INPUT c:/texlive/2020/texmf-dist/tex/generic/atbegshi/atbegshi.sty
INPUT c:/texlive/2020/texmf-dist/tex/generic/atbegshi/atbegshi.sty
INPUT c:/texlive/2020/texmf-dist/tex/latex/hyperref/hpdftex.def
INPUT c:/texlive/2020/texmf-dist/tex/latex/hyperref/hpdftex.def
INPUT c:/texlive/2020/texmf-dist/tex/latex/atveryend/atveryend.sty
INPUT c:/texlive/2020/texmf-dist/tex/latex/atveryend/atveryend.sty
INPUT c:/texlive/2020/texmf-dist/tex/latex/rerunfilecheck/rerunfilecheck.sty
INPUT c:/texlive/2020/texmf-dist/tex/latex/rerunfilecheck/rerunfilecheck.sty
INPUT c:/texlive/2020/texmf-dist/tex/generic/uniquecounter/uniquecounter.sty
INPUT c:/texlive/2020/texmf-dist/tex/generic/uniquecounter/uniquecounter.sty
INPUT c:/texlive/2020/texmf-dist/tex/latex/marginnote/marginnote.sty
INPUT c:/texlive/2020/texmf-dist/tex/latex/marginnote/marginnote.sty
INPUT c:/texlive/2020/texmf-dist/tex/latex/marginfix/marginfix.sty
INPUT c:/texlive/2020/texmf-dist/tex/latex/marginfix/marginfix.sty
INPUT c:/texlive/2020/texmf-dist/tex/latex/sidenotes/sidenotes.sty
INPUT c:/texlive/2020/texmf-dist/tex/latex/sidenotes/sidenotes.sty
INPUT c:/texlive/2020/texmf-dist/tex/latex/l3packages/l3keys2e/l3keys2e.sty
INPUT c:/texlive/2020/texmf-dist/tex/latex/l3packages/l3keys2e/l3keys2e.sty
INPUT c:/texlive/2020/texmf-dist/tex/latex/caption/caption.sty
INPUT c:/texlive/2020/texmf-dist/tex/latex/caption/caption.sty
INPUT c:/texlive/2020/texmf-dist/tex/latex/caption/caption3.sty
INPUT c:/texlive/2020/texmf-dist/tex/latex/caption/caption3.sty
INPUT c:/texlive/2020/texmf-dist/tex/latex/changepage/changepage.sty
INPUT c:/texlive/2020/texmf-dist/tex/latex/changepage/changepage.sty
INPUT c:/texlive/2020/texmf-dist/tex/latex/chngcntr/chngcntr.sty
INPUT c:/texlive/2020/texmf-dist/tex/latex/chngcntr/chngcntr.sty
INPUT c:/texlive/2020/texmf-dist/tex/latex/graphics/graphicx.sty
INPUT c:/texlive/2020/texmf-dist/tex/latex/graphics/graphicx.sty
INPUT c:/texlive/2020/texmf-dist/tex/latex/graphics/graphics.sty
INPUT c:/texlive/2020/texmf-dist/tex/latex/graphics/graphics.sty
INPUT c:/texlive/2020/texmf-dist/tex/latex/graphics/trig.sty
INPUT c:/texlive/2020/texmf-dist/tex/latex/graphics/trig.sty
INPUT c:/texlive/2020/texmf-dist/tex/latex/graphics-cfg/graphics.cfg
INPUT c:/texlive/2020/texmf-dist/tex/latex/graphics-cfg/graphics.cfg
INPUT c:/texlive/2020/texmf-dist/tex/latex/pgf/frontendlayer/tikz.sty
INPUT c:/texlive/2020/texmf-dist/tex/latex/pgf/frontendlayer/tikz.sty
INPUT c:/texlive/2020/texmf-dist/tex/latex/pgf/basiclayer/pgf.sty
INPUT c:/texlive/2020/texmf-dist/tex/latex/pgf/basiclayer/pgf.sty
INPUT c:/texlive/2020/texmf-dist/tex/latex/pgf/utilities/pgfrcs.sty
INPUT c:/texlive/2020/texmf-dist/tex/latex/pgf/utilities/pgfrcs.sty
INPUT c:/texlive/2020/texmf-dist/tex/generic/pgf/utilities/pgfutil-common.tex
INPUT c:/texlive/2020/texmf-dist/tex/generic/pgf/utilities/pgfutil-common-lists.tex
INPUT c:/texlive/2020/texmf-dist/tex/generic/pgf/utilities/pgfutil-latex.def
INPUT c:/texlive/2020/texmf-dist/tex/latex/ms/everyshi.sty
INPUT c:/texlive/2020/texmf-dist/tex/latex/ms/everyshi.sty
INPUT c:/texlive/2020/texmf-dist/tex/generic/pgf/utilities/pgfrcs.code.tex
INPUT c:/texlive/2020/texmf-dist/tex/generic/pgf/utilities/pgfrcs.code.tex
INPUT c:/texlive/2020/texmf-dist/tex/generic/pgf/pgf.revision.tex
INPUT c:/texlive/2020/texmf-dist/tex/generic/pgf/pgf.revision.tex
INPUT c:/texlive/2020/texmf-dist/tex/latex/pgf/basiclayer/pgfcore.sty
INPUT c:/texlive/2020/texmf-dist/tex/latex/pgf/basiclayer/pgfcore.sty
INPUT c:/texlive/2020/texmf-dist/tex/latex/pgf/systemlayer/pgfsys.sty
INPUT c:/texlive/2020/texmf-dist/tex/latex/pgf/systemlayer/pgfsys.sty
INPUT c:/texlive/2020/texmf-dist/tex/generic/pgf/systemlayer/pgfsys.code.tex
INPUT c:/texlive/2020/texmf-dist/tex/generic/pgf/systemlayer/pgfsys.code.tex
INPUT c:/texlive/2020/texmf-dist/tex/generic/pgf/utilities/pgfkeys.code.tex
INPUT c:/texlive/2020/texmf-dist/tex/generic/pgf/utilities/pgfkeysfiltered.code.tex
INPUT c:/texlive/2020/texmf-dist/tex/generic/pgf/systemlayer/pgf.cfg
INPUT c:/texlive/2020/texmf-dist/tex/generic/pgf/systemlayer/pgfsys-pdftex.def
INPUT c:/texlive/2020/texmf-dist/tex/generic/pgf/systemlayer/pgfsys-pdftex.def
INPUT c:/texlive/2020/texmf-dist/tex/generic/pgf/systemlayer/pgfsys-common-pdf.def
INPUT c:/texlive/2020/texmf-dist/tex/generic/pgf/systemlayer/pgfsyssoftpath.code.tex
INPUT c:/texlive/2020/texmf-dist/tex/generic/pgf/systemlayer/pgfsyssoftpath.code.tex
INPUT c:/texlive/2020/texmf-dist/tex/generic/pgf/systemlayer/pgfsysprotocol.code.tex
INPUT c:/texlive/2020/texmf-dist/tex/generic/pgf/systemlayer/pgfsysprotocol.code.tex
INPUT c:/texlive/2020/texmf-dist/tex/generic/pgf/basiclayer/pgfcore.code.tex
INPUT c:/texlive/2020/texmf-dist/tex/generic/pgf/basiclayer/pgfcore.code.tex
INPUT c:/texlive/2020/texmf-dist/tex/generic/pgf/math/pgfmath.code.tex
INPUT c:/texlive/2020/texmf-dist/tex/generic/pgf/math/pgfmathcalc.code.tex
INPUT c:/texlive/2020/texmf-dist/tex/generic/pgf/math/pgfmathutil.code.tex
INPUT c:/texlive/2020/texmf-dist/tex/generic/pgf/math/pgfmathparser.code.tex
INPUT c:/texlive/2020/texmf-dist/tex/generic/pgf/math/pgfmathfunctions.code.tex
INPUT c:/texlive/2020/texmf-dist/tex/generic/pgf/math/pgfmathfunctions.basic.code.tex
INPUT c:/texlive/2020/texmf-dist/tex/generic/pgf/math/pgfmathfunctions.trigonometric.code.tex
INPUT c:/texlive/2020/texmf-dist/tex/generic/pgf/math/pgfmathfunctions.random.code.tex
INPUT c:/texlive/2020/texmf-dist/tex/generic/pgf/math/pgfmathfunctions.comparison.code.tex
INPUT c:/texlive/2020/texmf-dist/tex/generic/pgf/math/pgfmathfunctions.base.code.tex
INPUT c:/texlive/2020/texmf-dist/tex/generic/pgf/math/pgfmathfunctions.round.code.tex
INPUT c:/texlive/2020/texmf-dist/tex/generic/pgf/math/pgfmathfunctions.misc.code.tex
INPUT c:/texlive/2020/texmf-dist/tex/generic/pgf/math/pgfmathfunctions.integerarithmetics.code.tex
INPUT c:/texlive/2020/texmf-dist/tex/generic/pgf/math/pgfmathfloat.code.tex
INPUT c:/texlive/2020/texmf-dist/tex/generic/pgf/math/pgfint.code.tex
INPUT c:/texlive/2020/texmf-dist/tex/generic/pgf/basiclayer/pgfcorepoints.code.tex
INPUT c:/texlive/2020/texmf-dist/tex/generic/pgf/basiclayer/pgfcorepathconstruct.code.tex
INPUT c:/texlive/2020/texmf-dist/tex/generic/pgf/basiclayer/pgfcorepathusage.code.tex
INPUT c:/texlive/2020/texmf-dist/tex/generic/pgf/basiclayer/pgfcorescopes.code.tex
INPUT c:/texlive/2020/texmf-dist/tex/generic/pgf/basiclayer/pgfcoregraphicstate.code.tex
INPUT c:/texlive/2020/texmf-dist/tex/generic/pgf/basiclayer/pgfcoretransformations.code.tex
INPUT c:/texlive/2020/texmf-dist/tex/generic/pgf/basiclayer/pgfcorequick.code.tex
INPUT c:/texlive/2020/texmf-dist/tex/generic/pgf/basiclayer/pgfcoreobjects.code.tex
INPUT c:/texlive/2020/texmf-dist/tex/generic/pgf/basiclayer/pgfcorepathprocessing.code.tex
INPUT c:/texlive/2020/texmf-dist/tex/generic/pgf/basiclayer/pgfcorearrows.code.tex
INPUT c:/texlive/2020/texmf-dist/tex/generic/pgf/basiclayer/pgfcoreshade.code.tex
INPUT c:/texlive/2020/texmf-dist/tex/generic/pgf/basiclayer/pgfcoreimage.code.tex
INPUT c:/texlive/2020/texmf-dist/tex/generic/pgf/basiclayer/pgfcoreexternal.code.tex
INPUT c:/texlive/2020/texmf-dist/tex/generic/pgf/basiclayer/pgfcorelayers.code.tex
INPUT c:/texlive/2020/texmf-dist/tex/generic/pgf/basiclayer/pgfcoretransparency.code.tex
INPUT c:/texlive/2020/texmf-dist/tex/generic/pgf/basiclayer/pgfcorepatterns.code.tex
INPUT c:/texlive/2020/texmf-dist/tex/generic/pgf/basiclayer/pgfcorerdf.code.tex
INPUT c:/texlive/2020/texmf-dist/tex/generic/pgf/modules/pgfmoduleshapes.code.tex
INPUT c:/texlive/2020/texmf-dist/tex/generic/pgf/modules/pgfmoduleplot.code.tex
INPUT c:/texlive/2020/texmf-dist/tex/latex/pgf/compatibility/pgfcomp-version-0-65.sty
INPUT c:/texlive/2020/texmf-dist/tex/latex/pgf/compatibility/pgfcomp-version-0-65.sty
INPUT c:/texlive/2020/texmf-dist/tex/latex/pgf/compatibility/pgfcomp-version-1-18.sty
INPUT c:/texlive/2020/texmf-dist/tex/latex/pgf/compatibility/pgfcomp-version-1-18.sty
INPUT c:/texlive/2020/texmf-dist/tex/latex/pgf/utilities/pgffor.sty
INPUT c:/texlive/2020/texmf-dist/tex/latex/pgf/utilities/pgffor.sty
INPUT c:/texlive/2020/texmf-dist/tex/latex/pgf/utilities/pgfkeys.sty
INPUT c:/texlive/2020/texmf-dist/tex/latex/pgf/utilities/pgfkeys.sty
INPUT c:/texlive/2020/texmf-dist/tex/generic/pgf/utilities/pgfkeys.code.tex
INPUT c:/texlive/2020/texmf-dist/tex/generic/pgf/utilities/pgfkeys.code.tex
INPUT c:/texlive/2020/texmf-dist/tex/latex/pgf/math/pgfmath.sty
INPUT c:/texlive/2020/texmf-dist/tex/latex/pgf/math/pgfmath.sty
INPUT c:/texlive/2020/texmf-dist/tex/generic/pgf/math/pgfmath.code.tex
INPUT c:/texlive/2020/texmf-dist/tex/generic/pgf/math/pgfmath.code.tex
INPUT c:/texlive/2020/texmf-dist/tex/generic/pgf/utilities/pgffor.code.tex
INPUT c:/texlive/2020/texmf-dist/tex/generic/pgf/utilities/pgffor.code.tex
INPUT c:/texlive/2020/texmf-dist/tex/generic/pgf/math/pgfmath.code.tex
INPUT c:/texlive/2020/texmf-dist/tex/generic/pgf/frontendlayer/tikz/tikz.code.tex
INPUT c:/texlive/2020/texmf-dist/tex/generic/pgf/frontendlayer/tikz/tikz.code.tex
INPUT c:/texlive/2020/texmf-dist/tex/generic/pgf/libraries/pgflibraryplothandlers.code.tex
INPUT c:/texlive/2020/texmf-dist/tex/generic/pgf/libraries/pgflibraryplothandlers.code.tex
INPUT c:/texlive/2020/texmf-dist/tex/generic/pgf/modules/pgfmodulematrix.code.tex
INPUT c:/texlive/2020/texmf-dist/tex/generic/pgf/frontendlayer/tikz/libraries/tikzlibrarytopaths.code.tex
INPUT c:/texlive/2020/texmf-dist/tex/generic/pgf/frontendlayer/tikz/libraries/tikzlibrarytopaths.code.tex
INPUT c:/texlive/2020/texmf-dist/tex/latex/booktabs/booktabs.sty
INPUT c:/texlive/2020/texmf-dist/tex/latex/booktabs/booktabs.sty
INPUT c:/texlive/2020/texmf-dist/tex/latex/multirow/multirow.sty
INPUT c:/texlive/2020/texmf-dist/tex/latex/multirow/multirow.sty
INPUT c:/texlive/2020/texmf-dist/tex/latex/tools/multicol.sty
INPUT c:/texlive/2020/texmf-dist/tex/latex/tools/multicol.sty
INPUT c:/texlive/2020/texmf-dist/tex/latex/floatrow/floatrow.sty
INPUT c:/texlive/2020/texmf-dist/tex/latex/floatrow/floatrow.sty
INPUT c:/texlive/2020/texmf-dist/tex/latex/graphics/rotating.sty
INPUT c:/texlive/2020/texmf-dist/tex/latex/dblfloatfix/dblfloatfix.sty
INPUT c:/texlive/2020/texmf-dist/tex/latex/dblfloatfix/dblfloatfix.sty
INPUT c:/texlive/2020/texmf-dist/tex/latex/base/fixltx2e.sty
INPUT c:/texlive/2020/texmf-dist/tex/latex/base/fixltx2e.sty
INPUT c:/texlive/2020/texmf-dist/tex/latex/etoc/etoc.sty
INPUT c:/texlive/2020/texmf-dist/tex/latex/etoc/etoc.sty
INPUT c:/texlive/2020/texmf-dist/tex/latex/geometry/geometry.sty
INPUT c:/texlive/2020/texmf-dist/tex/latex/geometry/geometry.sty
INPUT c:/texlive/2020/texmf-dist/tex/generic/iftex/ifvtex.sty
INPUT c:/texlive/2020/texmf-dist/tex/generic/iftex/ifvtex.sty
INPUT c:/texlive/2020/texmf-dist/tex/latex/koma-script/scrlayer-scrpage.sty
INPUT c:/texlive/2020/texmf-dist/tex/latex/koma-script/scrlayer-scrpage.sty
INPUT c:/texlive/2020/texmf-dist/tex/latex/koma-script/scrlayer.sty
INPUT c:/texlive/2020/texmf-dist/tex/latex/koma-script/scrlayer.sty
INPUT c:/texlive/2020/texmf-dist/tex/latex/base/fontenc.sty
INPUT c:/texlive/2020/texmf-dist/tex/latex/base/fontenc.sty
INPUT c:/texlive/2020/texmf-dist/fonts/map/fontname/texfonts.map
INPUT c:/texlive/2020/texmf-dist/fonts/tfm/jknappen/ec/ecrm1000.tfm
INPUT c:/texlive/2020/texmf-dist/tex/latex/base/inputenc.sty
INPUT c:/texlive/2020/texmf-dist/tex/latex/base/inputenc.sty
INPUT c:/texlive/2020/texmf-dist/tex/latex/newpx/newpxtext.sty
INPUT c:/texlive/2020/texmf-dist/tex/latex/newpx/newpxtext.sty
INPUT c:/texlive/2020/texmf-dist/tex/latex/fontaxes/fontaxes.sty
INPUT c:/texlive/2020/texmf-dist/tex/latex/fontaxes/fontaxes.sty
INPUT c:/texlive/2020/texmf-dist/tex/latex/base/fontenc.sty
INPUT c:/texlive/2020/texmf-dist/tex/latex/base/fontenc.sty
INPUT c:/texlive/2020/texmf-dist/tex/latex/newpx/t1zpltlf.fd
INPUT c:/texlive/2020/texmf-dist/tex/latex/newpx/t1zpltlf.fd
INPUT c:/texlive/2020/texmf-dist/fonts/tfm/public/newpx/zpl-Regular-tlf-t1.tfm
INPUT c:/texlive/2020/texmf-dist/tex/latex/base/textcomp.sty
INPUT c:/texlive/2020/texmf-dist/tex/latex/base/textcomp.sty
INPUT c:/texlive/2020/texmf-dist/tex/latex/newpx/newpxmath.sty
INPUT c:/texlive/2020/texmf-dist/tex/latex/newpx/newpxmath.sty
INPUT c:/texlive/2020/texmf-dist/tex/latex/amsmath/amsmath.sty
INPUT c:/texlive/2020/texmf-dist/tex/latex/amsmath/amsmath.sty
INPUT c:/texlive/2020/texmf-dist/tex/latex/amsmath/amstext.sty
INPUT c:/texlive/2020/texmf-dist/tex/latex/amsmath/amstext.sty
INPUT c:/texlive/2020/texmf-dist/tex/latex/amsmath/amsgen.sty
INPUT c:/texlive/2020/texmf-dist/tex/latex/amsmath/amsgen.sty
INPUT c:/texlive/2020/texmf-dist/tex/latex/amsmath/amsbsy.sty
INPUT c:/texlive/2020/texmf-dist/tex/latex/amsmath/amsbsy.sty
INPUT c:/texlive/2020/texmf-dist/tex/latex/amsmath/amsopn.sty
INPUT c:/texlive/2020/texmf-dist/tex/latex/amsmath/amsopn.sty
INPUT c:/texlive/2020/texmf-dist/tex/generic/kastrup/binhex.tex
INPUT c:/texlive/2020/texmf-dist/tex/generic/kastrup/binhex.tex
INPUT c:/texlive/2020/texmf-dist/tex/latex/oberdiek/centernot.sty
INPUT c:/texlive/2020/texmf-dist/tex/latex/oberdiek/centernot.sty
INPUT c:/texlive/2020/texmf-dist/tex/latex/bera/beramono.sty
INPUT c:/texlive/2020/texmf-dist/tex/latex/bera/beramono.sty
INPUT c:/texlive/2020/texmf-dist/tex/latex/mathalpha/mathalfa.sty
INPUT c:/texlive/2020/texmf-dist/tex/latex/mathalpha/mathalfa.sty
INPUT c:/texlive/2020/texmf-dist/tex/latex/mathalpha/mathalpha.sty
INPUT c:/texlive/2020/texmf-dist/tex/latex/mathalpha/mathalpha.sty
INPUT c:/texlive/2020/texmf-dist/tex/latex/tools/bm.sty
INPUT c:/texlive/2020/texmf-dist/tex/latex/tools/bm.sty
INPUT c:/texlive/2020/texmf-dist/tex/latex/bookmark/bookmark.sty
INPUT c:/texlive/2020/texmf-dist/tex/latex/bookmark/bookmark.sty
INPUT c:/texlive/2020/texmf-dist/tex/latex/bookmark/bkm-pdftex.def
INPUT c:/texlive/2020/texmf-dist/tex/latex/bookmark/bkm-pdftex.def
INPUT c:/texlive/2020/texmf-dist/tex/latex/hyperref/puenc.def
INPUT c:/texlive/2020/texmf-dist/tex/latex/hyperref/puenc.def
INPUT styles/environments.sty
INPUT styles/environments.sty
INPUT c:/texlive/2020/texmf-dist/tex/latex/amsfonts/amssymb.sty
INPUT c:/texlive/2020/texmf-dist/tex/latex/amsfonts/amssymb.sty
INPUT c:/texlive/2020/texmf-dist/tex/latex/amsfonts/amsfonts.sty
INPUT c:/texlive/2020/texmf-dist/tex/latex/amsfonts/amsfonts.sty
INPUT c:/texlive/2020/texmf-dist/tex/latex/enumitem/enumitem.sty
INPUT c:/texlive/2020/texmf-dist/tex/latex/enumitem/enumitem.sty
INPUT c:/texlive/2020/texmf-dist/tex/latex/mdframed/mdframed.sty
INPUT c:/texlive/2020/texmf-dist/tex/latex/mdframed/mdframed.sty
INPUT c:/texlive/2020/texmf-dist/tex/latex/zref/zref-abspage.sty
INPUT c:/texlive/2020/texmf-dist/tex/latex/zref/zref-abspage.sty
INPUT c:/texlive/2020/texmf-dist/tex/latex/zref/zref-base.sty
INPUT c:/texlive/2020/texmf-dist/tex/latex/zref/zref-base.sty
INPUT c:/texlive/2020/texmf-dist/tex/latex/pgf/frontendlayer/tikz.sty
INPUT c:/texlive/2020/texmf-dist/tex/latex/mdframed/md-frame-1.mdf
INPUT c:/texlive/2020/texmf-dist/tex/latex/mdframed/md-frame-1.mdf
INPUT styles/packages.sty
INPUT styles/packages.sty
INPUT c:/texlive/2020/texmf-dist/tex/latex/pdfpages/pdfpages.sty
INPUT c:/texlive/2020/texmf-dist/tex/latex/pdfpages/pdfpages.sty
INPUT c:/texlive/2020/texmf-dist/tex/latex/eso-pic/eso-pic.sty
INPUT c:/texlive/2020/texmf-dist/tex/latex/eso-pic/eso-pic.sty
INPUT c:/texlive/2020/texmf-dist/tex/latex/pdfpages/pppdftex.def
INPUT c:/texlive/2020/texmf-dist/tex/latex/pdfpages/pppdftex.def
INPUT c:/texlive/2020/texmf-dist/tex/latex/subfiles/subfiles.sty
INPUT c:/texlive/2020/texmf-dist/tex/latex/subfiles/subfiles.sty
INPUT c:/texlive/2020/texmf-dist/tex/latex/import/import.sty
INPUT c:/texlive/2020/texmf-dist/tex/latex/import/import.sty
INPUT c:/texlive/2020/texmf-dist/tex/latex/todonotes/todonotes.sty
INPUT c:/texlive/2020/texmf-dist/tex/latex/todonotes/todonotes.sty
INPUT c:/texlive/2020/texmf-dist/tex/generic/pgf/frontendlayer/tikz/libraries/tikzlibrarypositioning.code.tex
INPUT c:/texlive/2020/texmf-dist/tex/generic/pgf/frontendlayer/tikz/libraries/tikzlibrarypositioning.code.tex
INPUT c:/texlive/2020/texmf-dist/tex/generic/pgf/frontendlayer/tikz/libraries/tikzlibraryshadows.code.tex
INPUT c:/texlive/2020/texmf-dist/tex/generic/pgf/frontendlayer/tikz/libraries/tikzlibraryshadows.code.tex
INPUT c:/texlive/2020/texmf-dist/tex/generic/pgf/frontendlayer/tikz/libraries/tikzlibraryfadings.code.tex
INPUT c:/texlive/2020/texmf-dist/tex/generic/pgf/frontendlayer/tikz/libraries/tikzlibraryfadings.code.tex
INPUT c:/texlive/2020/texmf-dist/tex/generic/pgf/libraries/pgflibraryfadings.code.tex
INPUT c:/texlive/2020/texmf-dist/tex/generic/pgf/libraries/pgflibraryfadings.code.tex
OUTPUT main.pdf
INPUT c:/texlive/2020/texmf-dist/tex/latex/listings/listings.sty
INPUT c:/texlive/2020/texmf-dist/tex/latex/listings/listings.sty
INPUT c:/texlive/2020/texmf-dist/tex/latex/listings/lstmisc.sty
INPUT c:/texlive/2020/texmf-dist/tex/latex/listings/lstmisc.sty
INPUT c:/texlive/2020/texmf-dist/tex/latex/listings/listings.cfg
INPUT c:/texlive/2020/texmf-dist/tex/latex/listings/listings.cfg
INPUT c:/texlive/2020/texmf-dist/tex/latex/morewrites/morewrites.sty
INPUT c:/texlive/2020/texmf-dist/tex/latex/morewrites/morewrites.sty
INPUT c:/texlive/2020/texmf-dist/tex/latex/morewrites/primargs.sty
INPUT c:/texlive/2020/texmf-dist/tex/latex/morewrites/primargs.sty
INPUT c:/texlive/2020/texmf-dist/tex/latex/algorithm2e/algorithm2e.sty
INPUT c:/texlive/2020/texmf-dist/tex/latex/algorithm2e/algorithm2e.sty
INPUT c:/texlive/2020/texmf-dist/tex/latex/ifoddpage/ifoddpage.sty
INPUT c:/texlive/2020/texmf-dist/tex/latex/ifoddpage/ifoddpage.sty
INPUT c:/texlive/2020/texmf-dist/tex/latex/relsize/relsize.sty
INPUT c:/texlive/2020/texmf-dist/tex/latex/relsize/relsize.sty
INPUT c:/texlive/2020/texmf-dist/tex/latex/ccicons/ccicons.sty
INPUT c:/texlive/2020/texmf-dist/tex/latex/ccicons/ccicons.sty
INPUT c:/texlive/2020/texmf-dist/tex/latex/metalogo/metalogo.sty
INPUT c:/texlive/2020/texmf-dist/tex/latex/metalogo/metalogo.sty
INPUT c:/texlive/2020/texmf-dist/tex/generic/iftex/ifxetex.sty
INPUT c:/texlive/2020/texmf-dist/tex/generic/iftex/ifxetex.sty
INPUT c:/texlive/2020/texmf-dist/tex/latex/imakeidx/imakeidx.sty
INPUT c:/texlive/2020/texmf-dist/tex/latex/imakeidx/imakeidx.sty
INPUT c:/texlive/2020/texmf-dist/tex/generic/iftex/ifluatex.sty
INPUT c:/texlive/2020/texmf-dist/tex/generic/iftex/ifluatex.sty
INPUT c:/texlive/2020/texmf-dist/tex/latex/glossaries/base/glossaries.sty
INPUT c:/texlive/2020/texmf-dist/tex/latex/glossaries/base/glossaries.sty
INPUT c:/texlive/2020/texmf-dist/tex/latex/mfirstuc/mfirstuc.sty
INPUT c:/texlive/2020/texmf-dist/tex/latex/mfirstuc/mfirstuc.sty
INPUT c:/texlive/2020/texmf-dist/tex/latex/textcase/textcase.sty
INPUT c:/texlive/2020/texmf-dist/tex/latex/textcase/textcase.sty
INPUT c:/texlive/2020/texmf-dist/tex/latex/xfor/xfor.sty
INPUT c:/texlive/2020/texmf-dist/tex/latex/xfor/xfor.sty
INPUT c:/texlive/2020/texmf-dist/tex/latex/datatool/datatool-base.sty
INPUT c:/texlive/2020/texmf-dist/tex/latex/datatool/datatool-base.sty
INPUT c:/texlive/2020/texmf-dist/tex/latex/substr/substr.sty
INPUT c:/texlive/2020/texmf-dist/tex/latex/substr/substr.sty
INPUT c:/texlive/2020/texmf-dist/tex/latex/datatool/datatool-fp.sty
INPUT c:/texlive/2020/texmf-dist/tex/latex/datatool/datatool-fp.sty
INPUT c:/texlive/2020/texmf-dist/tex/latex/fp/fp.sty
INPUT c:/texlive/2020/texmf-dist/tex/latex/fp/fp.sty
INPUT c:/texlive/2020/texmf-dist/tex/latex/fp/defpattern.sty
INPUT c:/texlive/2020/texmf-dist/tex/latex/fp/defpattern.sty
INPUT c:/texlive/2020/texmf-dist/tex/latex/fp/fp-basic.sty
INPUT c:/texlive/2020/texmf-dist/tex/latex/fp/fp-basic.sty
INPUT c:/texlive/2020/texmf-dist/tex/latex/fp/fp-addons.sty
INPUT c:/texlive/2020/texmf-dist/tex/latex/fp/fp-addons.sty
INPUT c:/texlive/2020/texmf-dist/tex/latex/fp/fp-snap.sty
INPUT c:/texlive/2020/texmf-dist/tex/latex/fp/fp-snap.sty
INPUT c:/texlive/2020/texmf-dist/tex/latex/fp/fp-exp.sty
INPUT c:/texlive/2020/texmf-dist/tex/latex/fp/fp-exp.sty
INPUT c:/texlive/2020/texmf-dist/tex/latex/fp/fp-trigo.sty
INPUT c:/texlive/2020/texmf-dist/tex/latex/fp/fp-trigo.sty
INPUT c:/texlive/2020/texmf-dist/tex/latex/fp/fp-pas.sty
INPUT c:/texlive/2020/texmf-dist/tex/latex/fp/fp-pas.sty
INPUT c:/texlive/2020/texmf-dist/tex/latex/fp/fp-random.sty
INPUT c:/texlive/2020/texmf-dist/tex/latex/fp/fp-random.sty
INPUT c:/texlive/2020/texmf-dist/tex/latex/fp/fp-eqn.sty
INPUT c:/texlive/2020/texmf-dist/tex/latex/fp/fp-eqn.sty
INPUT c:/texlive/2020/texmf-dist/tex/latex/fp/fp-upn.sty
INPUT c:/texlive/2020/texmf-dist/tex/latex/fp/fp-upn.sty
INPUT c:/texlive/2020/texmf-dist/tex/latex/fp/fp-eval.sty
INPUT c:/texlive/2020/texmf-dist/tex/latex/fp/fp-eval.sty
INPUT c:/texlive/2020/texmf-dist/tex/latex/supertabular/supertabular.sty
INPUT c:/texlive/2020/texmf-dist/tex/latex/glossaries/base/glossaries-compatible-307.sty
INPUT c:/texlive/2020/texmf-dist/tex/latex/glossaries/base/glossaries-compatible-307.sty
INPUT c:/texlive/2020/texmf-dist/tex/latex/glossaries/styles/glossary-hypernav.sty
INPUT c:/texlive/2020/texmf-dist/tex/latex/glossaries/styles/glossary-hypernav.sty
INPUT c:/texlive/2020/texmf-dist/tex/latex/glossaries/styles/glossary-list.sty
INPUT c:/texlive/2020/texmf-dist/tex/latex/glossaries/styles/glossary-list.sty
INPUT c:/texlive/2020/texmf-dist/tex/latex/glossaries/styles/glossary-long.sty
INPUT c:/texlive/2020/texmf-dist/tex/latex/glossaries/styles/glossary-long.sty
INPUT c:/texlive/2020/texmf-dist/tex/latex/tools/longtable.sty
INPUT c:/texlive/2020/texmf-dist/tex/latex/tools/longtable.sty
INPUT c:/texlive/2020/texmf-dist/tex/latex/glossaries/styles/glossary-super.sty
INPUT c:/texlive/2020/texmf-dist/tex/latex/glossaries/styles/glossary-super.sty
INPUT c:/texlive/2020/texmf-dist/tex/latex/supertabular/supertabular.sty
INPUT c:/texlive/2020/texmf-dist/tex/latex/supertabular/supertabular.sty
INPUT c:/texlive/2020/texmf-dist/tex/latex/glossaries/styles/glossary-tree.sty
INPUT c:/texlive/2020/texmf-dist/tex/latex/glossaries/styles/glossary-tree.sty
INPUT c:/texlive/2020/texmf-dist/tex/latex/nomencl/nomencl.sty
INPUT c:/texlive/2020/texmf-dist/tex/latex/nomencl/nomencl.sty
INPUT styles/kaorefs.sty
INPUT styles/kaorefs.sty
INPUT c:/texlive/2020/texmf-dist/tex/latex/tools/varioref.sty
INPUT c:/texlive/2020/texmf-dist/tex/latex/tools/varioref.sty
INPUT c:/texlive/2020/texmf-dist/tex/generic/babel/babel.sty
INPUT c:/texlive/2020/texmf-dist/tex/generic/babel/babel.sty
INPUT c:/texlive/2020/texmf-dist/tex/generic/babel/babel.def
INPUT c:/texlive/2020/texmf-dist/tex/generic/babel/txtbabel.def
INPUT c:/texlive/2020/texmf-dist/tex/generic/babel-english/english.ldf
INPUT c:/texlive/2020/texmf-dist/tex/generic/babel-english/english.ldf
INPUT c:/texlive/2020/texmf-dist/tex/latex/csquotes/csquotes.sty
INPUT c:/texlive/2020/texmf-dist/tex/latex/csquotes/csquotes.sty
INPUT c:/texlive/2020/texmf-dist/tex/latex/csquotes/csquotes.def
INPUT c:/texlive/2020/texmf-dist/tex/latex/csquotes/csquotes.def
INPUT c:/texlive/2020/texmf-dist/tex/latex/csquotes/csquotes.cfg
INPUT c:/texlive/2020/texmf-dist/tex/latex/csquotes/csquotes.cfg
INPUT c:/texlive/2020/texmf-dist/tex/latex/blindtext/blindtext.sty
INPUT c:/texlive/2020/texmf-dist/tex/latex/blindtext/blindtext.sty
INPUT styles/kaobiblio.sty
INPUT styles/kaobiblio.sty
INPUT c:/texlive/2020/texmf-dist/tex/latex/bigfoot/perpage.sty
INPUT c:/texlive/2020/texmf-dist/tex/latex/bigfoot/perpage.sty
INPUT c:/texlive/2020/texmf-dist/tex/latex/biblatex/biblatex.sty
INPUT c:/texlive/2020/texmf-dist/tex/latex/biblatex/biblatex.sty
INPUT c:/texlive/2020/texmf-dist/tex/latex/logreq/logreq.sty
INPUT c:/texlive/2020/texmf-dist/tex/latex/logreq/logreq.sty
INPUT c:/texlive/2020/texmf-dist/tex/latex/logreq/logreq.def
INPUT c:/texlive/2020/texmf-dist/tex/latex/logreq/logreq.def
INPUT c:/texlive/2020/texmf-dist/tex/latex/biblatex/blx-dm.def
INPUT c:/texlive/2020/texmf-dist/tex/latex/biblatex/blx-dm.def
INPUT c:/texlive/2020/texmf-dist/tex/latex/biblatex/blx-compat.def
INPUT c:/texlive/2020/texmf-dist/tex/latex/biblatex/blx-compat.def
INPUT c:/texlive/2020/texmf-dist/tex/latex/biblatex/biblatex.def
INPUT c:/texlive/2020/texmf-dist/tex/latex/biblatex/biblatex.def
INPUT c:/texlive/2020/texmf-dist/tex/latex/biblatex/bbx/numeric.bbx
INPUT c:/texlive/2020/texmf-dist/tex/latex/biblatex/bbx/numeric.bbx
INPUT c:/texlive/2020/texmf-dist/tex/latex/biblatex/bbx/standard.bbx
INPUT c:/texlive/2020/texmf-dist/tex/latex/biblatex/bbx/standard.bbx
INPUT c:/texlive/2020/texmf-dist/tex/latex/biblatex/cbx/numeric-comp.cbx
INPUT c:/texlive/2020/texmf-dist/tex/latex/biblatex/cbx/numeric-comp.cbx
INPUT c:/texlive/2020/texmf-dist/tex/latex/biblatex/biblatex.cfg
INPUT c:/texlive/2020/texmf-dist/tex/latex/biblatex/biblatex.cfg
INPUT c:/texlive/2020/texmf-dist/tex/latex/biblatex/lbx/english.lbx
INPUT styles/mdftheorems.sty
INPUT styles/mdftheorems.sty
INPUT c:/texlive/2020/texmf-dist/tex/latex/amscls/amsthm.sty
INPUT c:/texlive/2020/texmf-dist/tex/latex/amscls/amsthm.sty
INPUT c:/texlive/2020/texmf-dist/tex/latex/thmtools/thmtools.sty
INPUT c:/texlive/2020/texmf-dist/tex/latex/thmtools/thmtools.sty
INPUT c:/texlive/2020/texmf-dist/tex/latex/thmtools/thm-patch.sty
INPUT c:/texlive/2020/texmf-dist/tex/latex/thmtools/thm-patch.sty
INPUT c:/texlive/2020/texmf-dist/tex/latex/thmtools/parseargs.sty
INPUT c:/texlive/2020/texmf-dist/tex/latex/thmtools/parseargs.sty
INPUT c:/texlive/2020/texmf-dist/tex/latex/thmtools/thm-kv.sty
INPUT c:/texlive/2020/texmf-dist/tex/latex/thmtools/thm-kv.sty
INPUT c:/texlive/2020/texmf-dist/tex/latex/thmtools/thm-autoref.sty
INPUT c:/texlive/2020/texmf-dist/tex/latex/thmtools/thm-autoref.sty
INPUT c:/texlive/2020/texmf-dist/tex/latex/thmtools/aliasctr.sty
INPUT c:/texlive/2020/texmf-dist/tex/latex/thmtools/aliasctr.sty
INPUT c:/texlive/2020/texmf-dist/tex/latex/thmtools/thm-listof.sty
INPUT c:/texlive/2020/texmf-dist/tex/latex/thmtools/thm-listof.sty
INPUT c:/texlive/2020/texmf-dist/tex/latex/thmtools/thm-restate.sty
INPUT c:/texlive/2020/texmf-dist/tex/latex/thmtools/thm-restate.sty
INPUT c:/texlive/2020/texmf-dist/tex/latex/thmtools/thm-amsthm.sty
INPUT c:/texlive/2020/texmf-dist/tex/latex/thmtools/thm-amsthm.sty
INPUT c:/texlive/2020/texmf-dist/tex/latex/thmtools/thmdef-mdframed.sty
INPUT c:/texlive/2020/texmf-dist/tex/latex/thmtools/thmdef-mdframed.sty
INPUT c:/texlive/2020/texmf-dist/tex/latex/thmtools/thmdef-mdframed.sty
OUTPUT main.idx
OUTPUT main.glo
OUTPUT main.nlo
INPUT c:/texlive/2020/texmf-dist/tex/latex/newpx/t1zpllf.fd
INPUT c:/texlive/2020/texmf-dist/tex/latex/newpx/t1zpllf.fd
INPUT c:/texlive/2020/texmf-dist/fonts/tfm/public/newpx/zpl-Regular-lf-t1.tfm
INPUT main.aux
INPUT main.aux
OUTPUT main.aux
INPUT c:/texlive/2020/texmf-dist/tex/latex/newpx/omlnpxmi.fd
INPUT c:/texlive/2020/texmf-dist/tex/latex/newpx/omlnpxmi.fd
INPUT c:/texlive/2020/texmf-dist/tex/latex/newpx/unpxexa.fd
INPUT c:/texlive/2020/texmf-dist/tex/latex/newpx/unpxexa.fd
INPUT c:/texlive/2020/texmf-dist/tex/latex/newpx/lmsnpxsy.fd
INPUT c:/texlive/2020/texmf-dist/tex/latex/newpx/lmsnpxsy.fd
INPUT c:/texlive/2020/texmf-dist/tex/latex/newpx/lmxnpxexx.fd
INPUT c:/texlive/2020/texmf-dist/tex/latex/newpx/lmxnpxexx.fd
INPUT c:/texlive/2020/texmf-dist/tex/latex/microtype/mt-ppl.cfg
INPUT c:/texlive/2020/texmf-dist/tex/latex/microtype/mt-ppl.cfg
INPUT c:/texlive/2020/texmf-dist/tex/context/base/mkii/supp-pdf.mkii
INPUT c:/texlive/2020/texmf-dist/tex/context/base/mkii/supp-pdf.mkii
INPUT c:/texlive/2020/texmf-dist/tex/latex/epstopdf-pkg/epstopdf-base.sty
INPUT c:/texlive/2020/texmf-dist/tex/latex/epstopdf-pkg/epstopdf-base.sty
INPUT c:/texlive/2020/texmf-dist/tex/latex/latexconfig/epstopdf-sys.cfg
INPUT c:/texlive/2020/texmf-dist/tex/latex/latexconfig/epstopdf-sys.cfg
INPUT c:/texlive/2020/texmf-dist/tex/latex/hyperref/nameref.sty
INPUT c:/texlive/2020/texmf-dist/tex/latex/hyperref/nameref.sty
INPUT c:/texlive/2020/texmf-dist/tex/latex/refcount/refcount.sty
INPUT c:/texlive/2020/texmf-dist/tex/latex/refcount/refcount.sty
INPUT c:/texlive/2020/texmf-dist/tex/generic/gettitlestring/gettitlestring.sty
INPUT c:/texlive/2020/texmf-dist/tex/generic/gettitlestring/gettitlestring.sty
INPUT c:/texlive/2020/texmf-dist/tex/latex/caption/ltcaption.sty
INPUT c:/texlive/2020/texmf-dist/tex/latex/caption/ltcaption.sty
INPUT c:/texlive/2020/texmf-dist/tex/latex/graphics/color.sty
INPUT c:/texlive/2020/texmf-dist/tex/latex/floatrow/fr-longtable.sty
INPUT c:/texlive/2020/texmf-dist/tex/latex/floatrow/fr-longtable.sty
INPUT main.toc
INPUT main.toc
INPUT c:/texlive/2020/texmf-dist/tex/latex/pdflscape/pdflscape.sty
INPUT c:/texlive/2020/texmf-dist/tex/latex/pdflscape/pdflscape.sty
INPUT c:/texlive/2020/texmf-dist/tex/latex/graphics/lscape.sty
INPUT c:/texlive/2020/texmf-dist/tex/latex/graphics/lscape.sty
INPUT main.glsdefs
INPUT main.glsdefs
INPUT c:/texlive/2020/texmf-dist/tex/latex/biblatex/lbx/english.lbx
INPUT c:/texlive/2020/texmf-dist/tex/latex/biblatex/lbx/english.lbx
OUTPUT main.bcf
INPUT main.mw
OUTPUT main.mw
INPUT main.mw
OUTPUT main.mw
INPUT main.bbl
INPUT main.bbl
INPUT main.bbl
INPUT c:/texlive/2020/texmf-dist/tex/latex/bera/t1fvm.fd
INPUT c:/texlive/2020/texmf-dist/tex/latex/bera/t1fvm.fd
INPUT c:/texlive/2020/texmf-dist/fonts/tfm/public/bera/fvmr8t.tfm
INPUT c:/texlive/2020/texmf-dist/fonts/tfm/public/newpx/zpl-Bold-lf-t1.tfm
INPUT c:/texlive/2020/texmf-dist/fonts/tfm/public/newpx/zpl-Bold-lf-t1.tfm
INPUT c:/texlive/2020/texmf-dist/tex/latex/tex-gyre/t1qhv.fd
INPUT c:/texlive/2020/texmf-dist/tex/latex/tex-gyre/t1qhv.fd
INPUT c:/texlive/2020/texmf-dist/fonts/tfm/public/tex-gyre/ec-qhvr.tfm
INPUT c:/texlive/2020/texmf-dist/fonts/tfm/public/tex-gyre/ec-qhvb.tfm
INPUT c:/texlive/2020/texmf-dist/fonts/tfm/public/tex-gyre/ec-qhvb.tfm
INPUT c:/texlive/2020/texmf-dist/fonts/tfm/public/newpx/zpl-Regular-lf-t1.tfm
INPUT c:/texlive/2020/texmf-dist/fonts/tfm/public/bera/fvmr8t.tfm
INPUT c:/texlive/2020/texmf-dist/fonts/tfm/public/tex-gyre/ec-qhvb.tfm
INPUT c:/texlive/2020/texmf-dist/fonts/tfm/public/newpx/zpl-Regular-lf-t1.tfm
INPUT c:/texlive/2020/texmf-dist/tex/latex/newpx/ot1zpltlf.fd
INPUT c:/texlive/2020/texmf-dist/tex/latex/newpx/ot1zpltlf.fd
INPUT c:/texlive/2020/texmf-dist/fonts/tfm/public/newpx/zpl-Regular-tlf-ot1.tfm
INPUT c:/texlive/2020/texmf-dist/fonts/tfm/public/newpx/zpl-Regular-tlf-ot1.tfm
INPUT c:/texlive/2020/texmf-dist/fonts/tfm/public/newpx/zpl-Regular-tlf-ot1.tfm
INPUT c:/texlive/2020/texmf-dist/fonts/tfm/public/newpx/zplmi.tfm
INPUT c:/texlive/2020/texmf-dist/fonts/tfm/public/newpx/zplmi.tfm
INPUT c:/texlive/2020/texmf-dist/fonts/tfm/public/newpx/zplmi.tfm
INPUT c:/texlive/2020/texmf-dist/fonts/tfm/public/newpx/zplsy.tfm
INPUT c:/texlive/2020/texmf-dist/fonts/tfm/public/newpx/zplsy.tfm
INPUT c:/texlive/2020/texmf-dist/fonts/tfm/public/newpx/zplsy.tfm
INPUT c:/texlive/2020/texmf-dist/fonts/tfm/public/newpx/zplexx.tfm
INPUT c:/texlive/2020/texmf-dist/fonts/tfm/public/newpx/zplexx.tfm
INPUT c:/texlive/2020/texmf-dist/fonts/tfm/public/newpx/zplexx.tfm
INPUT c:/texlive/2020/texmf-dist/tex/latex/newpx/unpxmia.fd
INPUT c:/texlive/2020/texmf-dist/tex/latex/newpx/unpxmia.fd
INPUT c:/texlive/2020/texmf-dist/fonts/tfm/public/newpx/zplmia.tfm
INPUT c:/texlive/2020/texmf-dist/fonts/tfm/public/newpx/zplmia.tfm
INPUT c:/texlive/2020/texmf-dist/fonts/tfm/public/newpx/zplmia.tfm
INPUT c:/texlive/2020/texmf-dist/tex/latex/newpx/unpxsym.fd
INPUT c:/texlive/2020/texmf-dist/tex/latex/newpx/unpxsym.fd
INPUT c:/texlive/2020/texmf-dist/fonts/tfm/public/newpx/zplsym.tfm
INPUT c:/texlive/2020/texmf-dist/fonts/tfm/public/newpx/zplsym.tfm
INPUT c:/texlive/2020/texmf-dist/fonts/tfm/public/newpx/zplsym.tfm
INPUT c:/texlive/2020/texmf-dist/tex/latex/newpx/unpxsyc.fd
INPUT c:/texlive/2020/texmf-dist/tex/latex/newpx/unpxsyc.fd
INPUT c:/texlive/2020/texmf-dist/fonts/tfm/public/newpx/zplsyc.tfm
INPUT c:/texlive/2020/texmf-dist/fonts/tfm/public/newpx/zplsyc.tfm
INPUT c:/texlive/2020/texmf-dist/fonts/tfm/public/newpx/zplsyc.tfm
INPUT c:/texlive/2020/texmf-dist/fonts/tfm/public/newpx/zplexa.tfm
INPUT c:/texlive/2020/texmf-dist/fonts/tfm/public/newpx/zplexa.tfm
INPUT c:/texlive/2020/texmf-dist/fonts/tfm/public/newpx/zplexa.tfm
INPUT c:/texlive/2020/texmf-dist/fonts/tfm/public/newpx/zpl-Bold-tlf-ot1.tfm
INPUT c:/texlive/2020/texmf-dist/fonts/tfm/public/newpx/zpl-Bold-tlf-ot1.tfm
INPUT c:/texlive/2020/texmf-dist/fonts/tfm/public/newpx/zpl-Bold-tlf-ot1.tfm
INPUT c:/texlive/2020/texmf-dist/fonts/tfm/public/newpx/zplbmi.tfm
INPUT c:/texlive/2020/texmf-dist/fonts/tfm/public/newpx/zplbmi.tfm
INPUT c:/texlive/2020/texmf-dist/fonts/tfm/public/newpx/zplbmi.tfm
INPUT c:/texlive/2020/texmf-dist/fonts/tfm/public/newpx/zplbsy.tfm
INPUT c:/texlive/2020/texmf-dist/fonts/tfm/public/newpx/zplbsy.tfm
INPUT c:/texlive/2020/texmf-dist/fonts/tfm/public/newpx/zplbsy.tfm
INPUT c:/texlive/2020/texmf-dist/fonts/tfm/public/newpx/zplbexx.tfm
INPUT c:/texlive/2020/texmf-dist/fonts/tfm/public/newpx/zplbexx.tfm
INPUT c:/texlive/2020/texmf-dist/fonts/tfm/public/newpx/zplbexx.tfm
INPUT c:/texlive/2020/texmf-dist/tex/latex/amsfonts/umsa.fd
INPUT c:/texlive/2020/texmf-dist/tex/latex/amsfonts/umsa.fd
INPUT c:/texlive/2020/texmf-dist/fonts/tfm/public/amsfonts/symbols/msam10.tfm
INPUT c:/texlive/2020/texmf-dist/tex/latex/microtype/mt-msa.cfg
INPUT c:/texlive/2020/texmf-dist/tex/latex/microtype/mt-msa.cfg
INPUT c:/texlive/2020/texmf-dist/fonts/tfm/public/amsfonts/symbols/msam10.tfm
INPUT c:/texlive/2020/texmf-dist/fonts/tfm/public/amsfonts/symbols/msam7.tfm
INPUT c:/texlive/2020/texmf-dist/tex/latex/amsfonts/umsb.fd
INPUT c:/texlive/2020/texmf-dist/tex/latex/amsfonts/umsb.fd
INPUT c:/texlive/2020/texmf-dist/fonts/tfm/public/amsfonts/symbols/msbm10.tfm
INPUT c:/texlive/2020/texmf-dist/tex/latex/microtype/mt-msb.cfg
INPUT c:/texlive/2020/texmf-dist/tex/latex/microtype/mt-msb.cfg
INPUT c:/texlive/2020/texmf-dist/fonts/tfm/public/amsfonts/symbols/msbm10.tfm
INPUT c:/texlive/2020/texmf-dist/fonts/tfm/public/amsfonts/symbols/msbm7.tfm
INPUT c:/texlive/2020/texmf-dist/fonts/tfm/public/newpx/zpl-Regular-lf-t1.tfm
INPUT c:/texlive/2020/texmf-dist/tex/latex/newpx/ts1zpllf.fd
INPUT c:/texlive/2020/texmf-dist/tex/latex/newpx/ts1zpllf.fd
INPUT c:/texlive/2020/texmf-dist/fonts/tfm/public/tex-gyre/ts1-qplr.tfm
INPUT c:/texlive/2020/texmf-dist/fonts/tfm/public/newpx/zpl-Regular-lf-t1.tfm
INPUT c:/texlive/2020/texmf-dist/fonts/tfm/public/newpx/zpl-Regular-tlf-ot1.tfm
INPUT c:/texlive/2020/texmf-dist/fonts/tfm/public/newpx/zpl-Regular-tlf-ot1.tfm
INPUT c:/texlive/2020/texmf-dist/fonts/tfm/public/newpx/zpl-Regular-tlf-ot1.tfm
INPUT c:/texlive/2020/texmf-dist/fonts/tfm/public/newpx/zplmi.tfm
INPUT c:/texlive/2020/texmf-dist/fonts/tfm/public/newpx/zplmi.tfm
INPUT c:/texlive/2020/texmf-dist/fonts/tfm/public/newpx/zplmi.tfm
INPUT c:/texlive/2020/texmf-dist/fonts/tfm/public/newpx/zplsy.tfm
INPUT c:/texlive/2020/texmf-dist/fonts/tfm/public/newpx/zplsy.tfm
INPUT c:/texlive/2020/texmf-dist/fonts/tfm/public/newpx/zplsy.tfm
INPUT c:/texlive/2020/texmf-dist/fonts/tfm/public/newpx/zplexx.tfm
INPUT c:/texlive/2020/texmf-dist/fonts/tfm/public/newpx/zplexx.tfm
INPUT c:/texlive/2020/texmf-dist/fonts/tfm/public/newpx/zplexx.tfm
INPUT c:/texlive/2020/texmf-dist/fonts/tfm/public/newpx/zplmia.tfm
INPUT c:/texlive/2020/texmf-dist/fonts/tfm/public/newpx/zplmia.tfm
INPUT c:/texlive/2020/texmf-dist/fonts/tfm/public/newpx/zplmia.tfm
INPUT c:/texlive/2020/texmf-dist/fonts/tfm/public/newpx/zplsym.tfm
INPUT c:/texlive/2020/texmf-dist/fonts/tfm/public/newpx/zplsym.tfm
INPUT c:/texlive/2020/texmf-dist/fonts/tfm/public/newpx/zplsym.tfm
INPUT c:/texlive/2020/texmf-dist/fonts/tfm/public/newpx/zplsyc.tfm
INPUT c:/texlive/2020/texmf-dist/fonts/tfm/public/newpx/zplsyc.tfm
INPUT c:/texlive/2020/texmf-dist/fonts/tfm/public/newpx/zplsyc.tfm
INPUT c:/texlive/2020/texmf-dist/fonts/tfm/public/newpx/zplexa.tfm
INPUT c:/texlive/2020/texmf-dist/fonts/tfm/public/newpx/zplexa.tfm
INPUT c:/texlive/2020/texmf-dist/fonts/tfm/public/newpx/zplexa.tfm
INPUT c:/texlive/2020/texmf-dist/fonts/tfm/public/newpx/zpl-Bold-tlf-ot1.tfm
INPUT c:/texlive/2020/texmf-dist/fonts/tfm/public/newpx/zpl-Bold-tlf-ot1.tfm
INPUT c:/texlive/2020/texmf-dist/fonts/tfm/public/newpx/zpl-Bold-tlf-ot1.tfm
INPUT c:/texlive/2020/texmf-dist/fonts/tfm/public/newpx/zplbmi.tfm
INPUT c:/texlive/2020/texmf-dist/fonts/tfm/public/newpx/zplbmi.tfm
INPUT c:/texlive/2020/texmf-dist/fonts/tfm/public/newpx/zplbmi.tfm
INPUT c:/texlive/2020/texmf-dist/fonts/tfm/public/newpx/zplbsy.tfm
INPUT c:/texlive/2020/texmf-dist/fonts/tfm/public/newpx/zplbsy.tfm
INPUT c:/texlive/2020/texmf-dist/fonts/tfm/public/newpx/zplbsy.tfm
INPUT c:/texlive/2020/texmf-dist/fonts/tfm/public/newpx/zplbexx.tfm
INPUT c:/texlive/2020/texmf-dist/fonts/tfm/public/newpx/zplbexx.tfm
INPUT c:/texlive/2020/texmf-dist/fonts/tfm/public/newpx/zplbexx.tfm
INPUT c:/texlive/2020/texmf-dist/fonts/tfm/public/amsfonts/symbols/msam10.tfm
INPUT c:/texlive/2020/texmf-dist/fonts/tfm/public/amsfonts/symbols/msam7.tfm
INPUT c:/texlive/2020/texmf-dist/fonts/tfm/public/amsfonts/symbols/msam5.tfm
INPUT c:/texlive/2020/texmf-dist/fonts/tfm/public/amsfonts/symbols/msbm10.tfm
INPUT c:/texlive/2020/texmf-dist/fonts/tfm/public/amsfonts/symbols/msbm7.tfm
INPUT c:/texlive/2020/texmf-dist/fonts/tfm/public/amsfonts/symbols/msbm5.tfm
INPUT c:/texlive/2020/texmf-dist/fonts/tfm/public/newpx/zpl-Regular-lf-t1.tfm
INPUT c:/texlive/2020/texmf-dist/fonts/tfm/public/tex-gyre/ts1-qplr.tfm
OUTPUT main.mw
INPUT c:/texlive/2020/texmf-var/fonts/map/pdftex/updmap/pdftex.map
INPUT c:/texlive/2020/texmf-dist/fonts/vf/public/bera/fvmr8t.vf
INPUT c:/texlive/2020/texmf-dist/fonts/tfm/public/bera/fvmr8r.tfm
INPUT c:/texlive/2020/texmf-dist/fonts/vf/public/bera/fvmr8t.vf
INPUT c:/texlive/2020/texmf-dist/fonts/tfm/public/bera/fvmr8r.tfm
INPUT main.mw
OUTPUT main.mw
OUTPUT main.xdy
OUTPUT main.mw
INPUT main.mw
OUTPUT main.mw
OUTPUT main.mw
INPUT main.mw
OUTPUT main.mw
OUTPUT main.mw
INPUT main.mw
OUTPUT main.mw
OUTPUT main.mw
INPUT main.mw
OUTPUT main.mw
OUTPUT main.mw
INPUT main.mw
OUTPUT main.mw
OUTPUT main.mw
INPUT main.mw
OUTPUT main.mw
OUTPUT main.mw
INPUT main.mw
OUTPUT main.mw
OUTPUT main.mw
INPUT main.mw
OUTPUT main.mw
OUTPUT main.mw
INPUT main.mw
OUTPUT main.mw
OUTPUT main.mw
INPUT main.mw
OUTPUT main.mw
OUTPUT main.mw
INPUT main.mw
OUTPUT main.mw
OUTPUT main.mw
INPUT main.mw
OUTPUT main.mw
OUTPUT main.mw
INPUT main.mw
OUTPUT main.mw
OUTPUT main.mw
INPUT main.mw
OUTPUT main.mw
OUTPUT main.mw
INPUT main.mw
OUTPUT main.mw
OUTPUT main.mw
INPUT main.mw
OUTPUT main.mw
OUTPUT main.mw
INPUT main.mw
OUTPUT main.mw
OUTPUT main.mw
INPUT main.mw
OUTPUT main.mw
OUTPUT main.mw
INPUT main.mw
OUTPUT main.mw
OUTPUT main.mw
INPUT main.mw
OUTPUT main.mw
OUTPUT main.mw
INPUT main.mw
OUTPUT main.mw
OUTPUT main.mw
INPUT main.mw
OUTPUT main.mw
OUTPUT main.mw
INPUT main.mw
OUTPUT main.mw
OUTPUT main.mw
INPUT main.mw
OUTPUT main.mw
OUTPUT main.mw
INPUT main.mw
OUTPUT main.mw
OUTPUT main.mw
INPUT main.mw
OUTPUT main.mw
OUTPUT main.mw
INPUT main.mw
OUTPUT main.mw
OUTPUT main.mw
INPUT main.mw
OUTPUT main.mw
OUTPUT main.mw
INPUT main.mw
OUTPUT main.mw
OUTPUT main.mw
INPUT main.mw
OUTPUT main.mw
OUTPUT main.mw
INPUT main.mw
OUTPUT main.mw
OUTPUT main.mw
INPUT main.mw
OUTPUT main.mw
OUTPUT main.mw
INPUT main.mw
OUTPUT main.mw
OUTPUT main.mw
INPUT main.mw
OUTPUT main.mw
OUTPUT main.mw
INPUT main.mw
OUTPUT main.mw
OUTPUT main.mw
INPUT main.mw
OUTPUT main.mw
OUTPUT main.mw
INPUT main.mw
OUTPUT main.mw
OUTPUT main.mw
INPUT main.mw
OUTPUT main.mw
OUTPUT main.mw
INPUT main.mw
OUTPUT main.mw
OUTPUT main.mw
INPUT main.mw
OUTPUT main.mw
OUTPUT main.mw
INPUT main.mw
OUTPUT main.mw
OUTPUT main.mw
INPUT main.mw
OUTPUT main.mw
OUTPUT main.mw
INPUT main.mw
OUTPUT main.mw
OUTPUT main.mw
INPUT main.mw
OUTPUT main.mw
OUTPUT main.mw
INPUT main.mw
OUTPUT main.mw
OUTPUT main.mw
INPUT main.mw
OUTPUT main.mw
OUTPUT main.mw
INPUT main.mw
OUTPUT main.mw
OUTPUT main.mw
INPUT main.mw
OUTPUT main.mw
OUTPUT main.mw
INPUT main.mw
OUTPUT main.mw
OUTPUT main.mw
INPUT main.mw
OUTPUT main.mw
OUTPUT main.mw
INPUT main.mw
OUTPUT main.mw
OUTPUT main.mw
INPUT main.mw
OUTPUT main.mw
OUTPUT main.mw
INPUT main.mw
OUTPUT main.mw
OUTPUT main.mw
INPUT main.mw
OUTPUT main.mw
OUTPUT main.mw
INPUT main.mw
OUTPUT main.mw
OUTPUT main.mw
INPUT main.mw
OUTPUT main.mw
OUTPUT main.mw
INPUT main.mw
OUTPUT main.mw
OUTPUT main.mw
INPUT main.mw
OUTPUT main.mw
OUTPUT main.mw
INPUT main.mw
OUTPUT main.mw
OUTPUT main.mw
INPUT main.mw
OUTPUT main.mw
OUTPUT main.mw
INPUT main.mw
OUTPUT main.mw
OUTPUT main.mw
INPUT main.mw
OUTPUT main.mw
OUTPUT main.mw
INPUT main.mw
OUTPUT main.mw
OUTPUT main.mw
INPUT main.mw
OUTPUT main.mw
OUTPUT main.mw
INPUT main.mw
OUTPUT main.mw
OUTPUT main.mw
INPUT main.mw
OUTPUT main.mw
OUTPUT main.mw
INPUT main.mw
OUTPUT main.mw
OUTPUT main.mw
INPUT main.mw
OUTPUT main.mw
OUTPUT main.mw
INPUT main.mw
OUTPUT main.mw
OUTPUT main.mw
INPUT main.mw
OUTPUT main.mw
OUTPUT main.mw
INPUT main.mw
OUTPUT main.mw
OUTPUT main.mw
INPUT main.mw
OUTPUT main.mw
OUTPUT main.mw
INPUT main.mw
OUTPUT main.mw
OUTPUT main.mw
INPUT main.mw
OUTPUT main.mw
OUTPUT main.mw
INPUT main.mw
OUTPUT main.mw
OUTPUT main.mw
INPUT main.mw
OUTPUT main.mw
OUTPUT main.mw
INPUT main.mw
OUTPUT main.mw
OUTPUT main.mw
INPUT main.mw
OUTPUT main.mw
OUTPUT main.mw
INPUT main.mw
OUTPUT main.mw
OUTPUT main.mw
INPUT main.mw
OUTPUT main.mw
OUTPUT main.mw
INPUT main.mw
OUTPUT main.mw
OUTPUT main.mw
INPUT main.mw
OUTPUT main.mw
OUTPUT main.mw
INPUT main.mw
OUTPUT main.mw
OUTPUT main.mw
INPUT main.mw
OUTPUT main.mw
OUTPUT main.mw
INPUT main.mw
OUTPUT main.mw
OUTPUT main.mw
INPUT main.mw
OUTPUT main.mw
OUTPUT main.mw
INPUT main.mw
OUTPUT main.mw
OUTPUT main.mw
INPUT main.mw
OUTPUT main.mw
OUTPUT main.mw
INPUT main.mw
OUTPUT main.mw
OUTPUT main.mw
INPUT main.mw
OUTPUT main.mw
OUTPUT main.mw
INPUT main.mw
OUTPUT main.mw
OUTPUT main.mw
INPUT main.mw
OUTPUT main.mw
OUTPUT main.mw
INPUT main.mw
OUTPUT main.mw
OUTPUT main.mw
INPUT main.mw
OUTPUT main.mw
OUTPUT main.mw
INPUT main.mw
OUTPUT main.mw
OUTPUT main.mw
INPUT main.mw
OUTPUT main.mw
OUTPUT main.mw
INPUT main.mw
OUTPUT main.mw
OUTPUT main.mw
INPUT main.mw
OUTPUT main.mw
OUTPUT main.mw
INPUT main.mw
OUTPUT main.mw
OUTPUT main.mw
INPUT main.mw
OUTPUT main.mw
OUTPUT main.mw
INPUT main.mw
OUTPUT main.mw
OUTPUT main.mw
INPUT main.mw
OUTPUT main.mw
OUTPUT main.mw
INPUT main.mw
OUTPUT main.mw
OUTPUT main.mw
INPUT main.mw
OUTPUT main.mw
OUTPUT main.mw
INPUT main.mw
OUTPUT main.mw
OUTPUT main.mw
INPUT main.mw
OUTPUT main.mw
OUTPUT main.mw
INPUT main.mw
OUTPUT main.mw
OUTPUT main.mw
INPUT main.mw
OUTPUT main.mw
OUTPUT main.mw
INPUT main.mw
OUTPUT main.mw
OUTPUT main.mw
INPUT main.mw
OUTPUT main.mw
OUTPUT main.mw
INPUT main.mw
OUTPUT main.mw
OUTPUT main.mw
INPUT main.mw
OUTPUT main.mw
OUTPUT main.mw
INPUT main.mw
OUTPUT main.mw
OUTPUT main.xdy
INPUT c:/texlive/2020/texmf-dist/fonts/tfm/public/ccicons/ccicons.tfm
INPUT c:/texlive/2020/texmf-dist/fonts/tfm/public/newpx/zpl-Regular-tlf-ot1.tfm
INPUT c:/texlive/2020/texmf-dist/fonts/tfm/public/newpx/zplmi.tfm
INPUT c:/texlive/2020/texmf-dist/fonts/tfm/public/newpx/zplsy.tfm
INPUT c:/texlive/2020/texmf-dist/fonts/tfm/public/newpx/zplexx.tfm
INPUT c:/texlive/2020/texmf-dist/fonts/tfm/public/newpx/zplmia.tfm
INPUT c:/texlive/2020/texmf-dist/fonts/tfm/public/newpx/zplsym.tfm
INPUT c:/texlive/2020/texmf-dist/fonts/tfm/public/newpx/zplsyc.tfm
INPUT c:/texlive/2020/texmf-dist/fonts/tfm/public/newpx/zplexa.tfm
INPUT c:/texlive/2020/texmf-dist/fonts/tfm/public/newpx/zpl-Bold-tlf-ot1.tfm
INPUT c:/texlive/2020/texmf-dist/fonts/tfm/public/newpx/zplbmi.tfm
INPUT c:/texlive/2020/texmf-dist/fonts/tfm/public/newpx/zplbsy.tfm
INPUT c:/texlive/2020/texmf-dist/fonts/tfm/public/newpx/zplbexx.tfm
INPUT c:/texlive/2020/texmf-dist/fonts/tfm/public/amsfonts/symbols/msam10.tfm
INPUT c:/texlive/2020/texmf-dist/fonts/tfm/public/amsfonts/symbols/msbm10.tfm
OUTPUT main.mw
INPUT main.mw
OUTPUT main.mw
OUTPUT main.mw
INPUT main.mw
OUTPUT main.mw
OUTPUT main.mw
INPUT main.mw
OUTPUT main.mw
OUTPUT main.toc
INPUT c:/texlive/2020/texmf-dist/fonts/tfm/public/newpx/zpl-Bold-lf-t1.tfm
INPUT c:/texlive/2020/texmf-dist/fonts/tfm/public/newpx/zpl-Regular-lf-t1.tfm
INPUT c:/texlive/2020/texmf-dist/fonts/tfm/public/newpx/zpl-Regular-lf-sc-t1.tfm
INPUT c:/texlive/2020/texmf-dist/fonts/tfm/public/newpx/zpl-Bold-lf-sc-t1.tfm
INPUT c:/texlive/2020/texmf-dist/fonts/tfm/public/newpx/zpl-Italic-tlf-th-t1.tfm
OUTPUT main.mw
INPUT main.mw
OUTPUT main.mw
OUTPUT main.mw
INPUT main.mw
OUTPUT main.mw
INPUT main.lof
INPUT main.lof
OUTPUT main.lof
INPUT main.lot
INPUT main.lot
OUTPUT main.lot
OUTPUT main.mw
INPUT main.mw
OUTPUT main.mw
OUTPUT main.mw
INPUT main.mw
OUTPUT main.mw
INPUT chapters/introduction.tex
INPUT chapters/introduction.tex
INPUT c:/texlive/2020/texmf-dist/fonts/tfm/public/newpx/zpl-Regular-lf-t1.tfm
INPUT c:/texlive/2020/texmf-dist/fonts/tfm/public/newpx/zpl-Bold-lf-t1.tfm
INPUT c:/texlive/2020/texmf-dist/fonts/tfm/public/tex-gyre/ec-qhvb.tfm
OUTPUT main.mw
INPUT main.mw
OUTPUT main.mw
INPUT c:/texlive/2020/texmf-dist/fonts/tfm/public/newpx/zpl-Italic-lf-t1.tfm
INPUT images/monalisa.jpg
INPUT ./images/monalisa.jpg
INPUT ./images/monalisa.jpg
INPUT c:/texlive/2020/texmf-dist/fonts/tfm/public/newpx/zpl-Bold-lf-t1.tfm
INPUT c:/texlive/2020/texmf-dist/fonts/tfm/public/bera/fvmr8t.tfm
INPUT c:/texlive/2020/texmf-dist/fonts/tfm/public/newpx/zpl-Regular-tlf-ot1.tfm
INPUT c:/texlive/2020/texmf-dist/fonts/tfm/public/newpx/zpl-Regular-tlf-ot1.tfm
INPUT c:/texlive/2020/texmf-dist/fonts/tfm/public/newpx/zplmi.tfm
INPUT c:/texlive/2020/texmf-dist/fonts/tfm/public/newpx/zplmi.tfm
INPUT c:/texlive/2020/texmf-dist/fonts/tfm/public/newpx/zplsy.tfm
INPUT c:/texlive/2020/texmf-dist/fonts/tfm/public/newpx/zplsy.tfm
INPUT c:/texlive/2020/texmf-dist/fonts/tfm/public/newpx/zplexx.tfm
INPUT c:/texlive/2020/texmf-dist/fonts/tfm/public/newpx/zplexx.tfm
INPUT c:/texlive/2020/texmf-dist/fonts/tfm/public/newpx/zplmia.tfm
INPUT c:/texlive/2020/texmf-dist/fonts/tfm/public/newpx/zplmia.tfm
INPUT c:/texlive/2020/texmf-dist/fonts/tfm/public/newpx/zplsym.tfm
INPUT c:/texlive/2020/texmf-dist/fonts/tfm/public/newpx/zplsym.tfm
INPUT c:/texlive/2020/texmf-dist/fonts/tfm/public/newpx/zplsyc.tfm
INPUT c:/texlive/2020/texmf-dist/fonts/tfm/public/newpx/zplsyc.tfm
INPUT c:/texlive/2020/texmf-dist/fonts/tfm/public/newpx/zplexa.tfm
INPUT c:/texlive/2020/texmf-dist/fonts/tfm/public/newpx/zplexa.tfm
INPUT c:/texlive/2020/texmf-dist/fonts/tfm/public/newpx/zpl-Bold-tlf-ot1.tfm
INPUT c:/texlive/2020/texmf-dist/fonts/tfm/public/newpx/zpl-Bold-tlf-ot1.tfm
INPUT c:/texlive/2020/texmf-dist/fonts/tfm/public/newpx/zplbmi.tfm
INPUT c:/texlive/2020/texmf-dist/fonts/tfm/public/newpx/zplbmi.tfm
INPUT c:/texlive/2020/texmf-dist/fonts/tfm/public/newpx/zplbsy.tfm
INPUT c:/texlive/2020/texmf-dist/fonts/tfm/public/newpx/zplbsy.tfm
INPUT c:/texlive/2020/texmf-dist/fonts/tfm/public/newpx/zplbexx.tfm
INPUT c:/texlive/2020/texmf-dist/fonts/tfm/public/newpx/zplbexx.tfm
INPUT c:/texlive/2020/texmf-dist/fonts/tfm/public/amsfonts/symbols/msam10.tfm
INPUT c:/texlive/2020/texmf-dist/fonts/tfm/public/amsfonts/symbols/msam7.tfm
INPUT c:/texlive/2020/texmf-dist/fonts/tfm/public/amsfonts/symbols/msbm10.tfm
INPUT c:/texlive/2020/texmf-dist/fonts/tfm/public/amsfonts/symbols/msbm7.tfm
OUTPUT main.mw
INPUT c:/texlive/2020/texmf-dist/fonts/vf/public/bera/fvmr8t.vf
INPUT c:/texlive/2020/texmf-dist/fonts/tfm/public/bera/fvmr8r.tfm
INPUT main.mw
OUTPUT main.mw
INPUT c:/texlive/2020/texmf-dist/fonts/tfm/public/bera/fvmr8t.tfm
OUTPUT main.mw
INPUT c:/texlive/2020/texmf-dist/fonts/vf/public/bera/fvmr8t.vf
INPUT c:/texlive/2020/texmf-dist/fonts/tfm/public/bera/fvmr8r.tfm
INPUT main.mw
OUTPUT main.mw
INPUT c:/texlive/2020/texmf-dist/fonts/tfm/public/tex-gyre/ec-qhvb.tfm
INPUT c:/texlive/2020/texmf-dist/fonts/tfm/public/newpx/zpl-Regular-lf-t1.tfm
INPUT c:/texlive/2020/texmf-dist/fonts/tfm/public/newpx/zpl-Regular-lf-sc-t1.tfm
INPUT c:/texlive/2020/texmf-dist/fonts/tfm/public/newpx/zpl-Bold-lf-sc-t1.tfm
OUTPUT main.mw
INPUT main.mw
OUTPUT main.mw
INPUT chapters/options.tex
INPUT chapters/options.tex
INPUT c:/texlive/2020/texmf-dist/fonts/tfm/public/bera/fvmb8t.tfm
INPUT c:/texlive/2020/texmf-dist/fonts/tfm/public/bera/fvmb8t.tfm
OUTPUT main.mw
INPUT c:/texlive/2020/texmf-dist/fonts/vf/public/bera/fvmb8t.vf
INPUT c:/texlive/2020/texmf-dist/fonts/tfm/public/bera/fvmb8r.tfm
INPUT c:/texlive/2020/texmf-dist/fonts/vf/public/bera/fvmb8t.vf
INPUT c:/texlive/2020/texmf-dist/fonts/tfm/public/bera/fvmb8r.tfm
INPUT main.mw
OUTPUT main.mw
INPUT chapters/textnotes.tex
INPUT chapters/textnotes.tex
OUTPUT main.mw
INPUT main.mw
OUTPUT main.mw
OUTPUT main.mw
INPUT main.mw
OUTPUT main.mw
OUTPUT main.mw
INPUT main.mw
OUTPUT main.mw
INPUT c:/texlive/2020/texmf-dist/fonts/tfm/public/newpx/zpl-Regular-lf-t1.tfm
INPUT c:/texlive/2020/texmf-dist/fonts/tfm/public/tex-gyre/ts1-qplr.tfm
INPUT c:/texlive/2020/texmf-dist/tex/latex/listings/lstlang1.sty
INPUT c:/texlive/2020/texmf-dist/tex/latex/listings/lstlang1.sty
INPUT chapters/figsntabs.tex
INPUT chapters/figsntabs.tex
OUTPUT main.mw
INPUT main.mw
OUTPUT main.mw
INPUT images/seaside.jpeg
INPUT ./images/seaside.jpeg
INPUT ./images/seaside.jpeg
INPUT c:/texlive/2020/texmf-dist/fonts/tfm/public/newpx/zpl-Regular-tlf-ot1.tfm
INPUT c:/texlive/2020/texmf-dist/fonts/tfm/public/newpx/zpl-Regular-tlf-ot1.tfm
INPUT c:/texlive/2020/texmf-dist/fonts/tfm/public/newpx/zpl-Regular-tlf-ot1.tfm
INPUT c:/texlive/2020/texmf-dist/fonts/tfm/public/newpx/zplmi.tfm
INPUT c:/texlive/2020/texmf-dist/fonts/tfm/public/newpx/zplmi.tfm
INPUT c:/texlive/2020/texmf-dist/fonts/tfm/public/newpx/zplmi.tfm
INPUT c:/texlive/2020/texmf-dist/fonts/tfm/public/newpx/zplsy.tfm
INPUT c:/texlive/2020/texmf-dist/fonts/tfm/public/newpx/zplsy.tfm
INPUT c:/texlive/2020/texmf-dist/fonts/tfm/public/newpx/zplsy.tfm
INPUT c:/texlive/2020/texmf-dist/fonts/tfm/public/newpx/zplexx.tfm
INPUT c:/texlive/2020/texmf-dist/fonts/tfm/public/newpx/zplexx.tfm
INPUT c:/texlive/2020/texmf-dist/fonts/tfm/public/newpx/zplexx.tfm
INPUT c:/texlive/2020/texmf-dist/fonts/tfm/public/newpx/zplmia.tfm
INPUT c:/texlive/2020/texmf-dist/fonts/tfm/public/newpx/zplmia.tfm
INPUT c:/texlive/2020/texmf-dist/fonts/tfm/public/newpx/zplmia.tfm
INPUT c:/texlive/2020/texmf-dist/fonts/tfm/public/newpx/zplsym.tfm
INPUT c:/texlive/2020/texmf-dist/fonts/tfm/public/newpx/zplsym.tfm
INPUT c:/texlive/2020/texmf-dist/fonts/tfm/public/newpx/zplsym.tfm
INPUT c:/texlive/2020/texmf-dist/fonts/tfm/public/newpx/zplsyc.tfm
INPUT c:/texlive/2020/texmf-dist/fonts/tfm/public/newpx/zplsyc.tfm
INPUT c:/texlive/2020/texmf-dist/fonts/tfm/public/newpx/zplsyc.tfm
INPUT c:/texlive/2020/texmf-dist/fonts/tfm/public/newpx/zplexa.tfm
INPUT c:/texlive/2020/texmf-dist/fonts/tfm/public/newpx/zplexa.tfm
INPUT c:/texlive/2020/texmf-dist/fonts/tfm/public/newpx/zplexa.tfm
INPUT c:/texlive/2020/texmf-dist/fonts/tfm/public/newpx/zpl-Bold-tlf-ot1.tfm
INPUT c:/texlive/2020/texmf-dist/fonts/tfm/public/newpx/zpl-Bold-tlf-ot1.tfm
INPUT c:/texlive/2020/texmf-dist/fonts/tfm/public/newpx/zpl-Bold-tlf-ot1.tfm
INPUT c:/texlive/2020/texmf-dist/fonts/tfm/public/newpx/zplbmi.tfm
INPUT c:/texlive/2020/texmf-dist/fonts/tfm/public/newpx/zplbmi.tfm
INPUT c:/texlive/2020/texmf-dist/fonts/tfm/public/newpx/zplbmi.tfm
INPUT c:/texlive/2020/texmf-dist/fonts/tfm/public/newpx/zplbsy.tfm
INPUT c:/texlive/2020/texmf-dist/fonts/tfm/public/newpx/zplbsy.tfm
INPUT c:/texlive/2020/texmf-dist/fonts/tfm/public/newpx/zplbsy.tfm
INPUT c:/texlive/2020/texmf-dist/fonts/tfm/public/newpx/zplbexx.tfm
INPUT c:/texlive/2020/texmf-dist/fonts/tfm/public/newpx/zplbexx.tfm
INPUT c:/texlive/2020/texmf-dist/fonts/tfm/public/newpx/zplbexx.tfm
INPUT c:/texlive/2020/texmf-dist/fonts/tfm/public/amsfonts/symbols/msam10.tfm
INPUT c:/texlive/2020/texmf-dist/fonts/tfm/public/amsfonts/symbols/msam10.tfm
INPUT c:/texlive/2020/texmf-dist/fonts/tfm/public/amsfonts/symbols/msam10.tfm
INPUT c:/texlive/2020/texmf-dist/fonts/tfm/public/amsfonts/symbols/msbm10.tfm
INPUT c:/texlive/2020/texmf-dist/fonts/tfm/public/amsfonts/symbols/msbm10.tfm
INPUT c:/texlive/2020/texmf-dist/fonts/tfm/public/amsfonts/symbols/msbm10.tfm
INPUT c:/texlive/2020/texmf-dist/fonts/tfm/public/newpx/zpl-Bold-lf-t1.tfm
INPUT images/monalisa.jpg
INPUT ./images/monalisa.jpg
OUTPUT main.mw
INPUT main.mw
OUTPUT main.mw
INPUT c:/texlive/2020/texmf-dist/fonts/tfm/public/newpx/zpl-Regular-lf-t1.tfm
INPUT c:/texlive/2020/texmf-dist/fonts/tfm/public/bera/fvmr8t.tfm
OUTPUT main.mw
INPUT c:/texlive/2020/texmf-dist/fonts/vf/public/bera/fvmr8t.vf
INPUT c:/texlive/2020/texmf-dist/fonts/tfm/public/bera/fvmr8r.tfm
INPUT main.mw
OUTPUT main.mw
INPUT images/seaside.jpeg
INPUT ./images/seaside.jpeg
INPUT chapters/references.tex
INPUT chapters/references.tex
OUTPUT main.mw
INPUT main.mw
OUTPUT main.mw
OUTPUT main.mw
INPUT main.mw
OUTPUT main.mw
OUTPUT main.mw
INPUT main.mw
OUTPUT main.mw
OUTPUT main.mw
INPUT main.mw
OUTPUT main.mw
OUTPUT main.mw
INPUT main.mw
OUTPUT main.mw
OUTPUT main.mw
INPUT main.mw
OUTPUT main.mw
OUTPUT main.mw
INPUT main.mw
OUTPUT main.mw
OUTPUT main.mw
INPUT main.mw
OUTPUT main.mw
OUTPUT main.mw
INPUT main.mw
OUTPUT main.mw
OUTPUT main.mw
INPUT main.mw
OUTPUT main.mw
OUTPUT main.mw
INPUT main.mw
OUTPUT main.mw
INPUT c:/texlive/2020/texmf-dist/fonts/tfm/public/newpx/zpl-Italic-lf-t1.tfm
OUTPUT main.mw
INPUT main.mw
OUTPUT main.mw
OUTPUT main.mw
INPUT main.mw
OUTPUT main.mw
OUTPUT main.mw
INPUT main.mw
OUTPUT main.mw
OUTPUT main.mw
INPUT main.mw
OUTPUT main.mw
OUTPUT main.mw
INPUT main.mw
OUTPUT main.mw
OUTPUT main.mw
INPUT main.mw
OUTPUT main.mw
OUTPUT main.mw
INPUT main.mw
OUTPUT main.mw
OUTPUT main.mw
INPUT main.mw
OUTPUT main.mw
OUTPUT main.mw
INPUT main.mw
OUTPUT main.mw
OUTPUT main.mw
INPUT main.mw
OUTPUT main.mw
OUTPUT main.mw
INPUT main.mw
OUTPUT main.mw
OUTPUT main.mw
INPUT main.mw
OUTPUT main.mw
OUTPUT main.mw
INPUT main.mw
OUTPUT main.mw
OUTPUT main.mw
INPUT main.mw
OUTPUT main.mw
OUTPUT main.mw
INPUT main.mw
OUTPUT main.mw
OUTPUT main.mw
INPUT main.mw
OUTPUT main.mw
OUTPUT main.mw
INPUT main.mw
OUTPUT main.mw
OUTPUT main.mw
INPUT main.mw
OUTPUT main.mw
OUTPUT main.mw
INPUT main.mw
OUTPUT main.mw
OUTPUT main.mw
INPUT main.mw
OUTPUT main.mw
OUTPUT main.mw
INPUT main.mw
OUTPUT main.mw
OUTPUT main.mw
INPUT main.mw
OUTPUT main.mw
OUTPUT main.mw
INPUT main.mw
OUTPUT main.mw
OUTPUT main.mw
INPUT main.mw
OUTPUT main.mw
OUTPUT main.mw
INPUT main.mw
OUTPUT main.mw
OUTPUT main.mw
INPUT main.mw
OUTPUT main.mw
OUTPUT main.mw
INPUT main.mw
OUTPUT main.mw
OUTPUT main.mw
INPUT main.mw
OUTPUT main.mw
INPUT chapters/layout.tex
INPUT chapters/layout.tex
INPUT images/seaside.jpeg
INPUT ./images/seaside.jpeg
OUTPUT main.mw
INPUT main.mw
OUTPUT main.mw
OUTPUT main.mw
INPUT main.mw
OUTPUT main.mw
OUTPUT main.mw
INPUT main.mw
OUTPUT main.mw
OUTPUT main.mw
INPUT main.mw
OUTPUT main.mw
OUTPUT main.mw
INPUT main.mw
OUTPUT main.mw
OUTPUT main.mw
INPUT main.mw
OUTPUT main.mw
INPUT c:/texlive/2020/texmf-dist/fonts/tfm/public/newpx/zpl-BoldItalic-lf-t1.tfm
INPUT chapters/mathematics.tex
INPUT chapters/mathematics.tex
OUTPUT main.mw
INPUT main.mw
OUTPUT main.mw
INPUT c:/texlive/2020/texmf-dist/fonts/tfm/public/newpx/zpl-Italic-lf-t1.tfm
INPUT c:/texlive/2020/texmf-dist/fonts/tfm/public/newpx/zpl-Italic-lf-t1.tfm
OUTPUT main.mw
INPUT c:/texlive/2020/texmf-dist/fonts/vf/public/newpx/zplsy.vf
INPUT c:/texlive/2020/texmf-dist/fonts/tfm/public/newpx/pxsys.tfm
INPUT c:/texlive/2020/texmf-dist/fonts/tfm/public/newtx/txex-bar.tfm
INPUT c:/texlive/2020/texmf-dist/fonts/vf/public/newpx/zplmi.vf
INPUT c:/texlive/2020/texmf-dist/fonts/tfm/public/newpx/NewPXMI_gnu.tfm
INPUT c:/texlive/2020/texmf-dist/fonts/tfm/public/newpx/NewPXMI.tfm
INPUT c:/texlive/2020/texmf-dist/fonts/tfm/public/newtx/stxscr.tfm
INPUT main.mw
OUTPUT main.mw
OUTPUT main.mw
INPUT c:/texlive/2020/texmf-dist/fonts/vf/public/newpx/zplmi.vf
INPUT c:/texlive/2020/texmf-dist/fonts/tfm/public/newpx/NewPXMI_gnu.tfm
INPUT c:/texlive/2020/texmf-dist/fonts/tfm/public/newpx/NewPXMI.tfm
INPUT c:/texlive/2020/texmf-dist/fonts/tfm/public/newtx/stxscr.tfm
INPUT c:/texlive/2020/texmf-dist/fonts/vf/public/newpx/zplmia.vf
INPUT c:/texlive/2020/texmf-dist/fonts/tfm/public/newpx/pxmiaX.tfm
INPUT c:/texlive/2020/texmf-dist/fonts/tfm/public/newtx/txmiaSTbb.tfm
INPUT c:/texlive/2020/texmf-dist/fonts/vf/public/newpx/zplsy.vf
INPUT c:/texlive/2020/texmf-dist/fonts/tfm/public/newpx/pxsys.tfm
INPUT c:/texlive/2020/texmf-dist/fonts/tfm/public/newtx/txex-bar.tfm
INPUT c:/texlive/2020/texmf-dist/fonts/vf/public/newpx/zplexx.vf
INPUT c:/texlive/2020/texmf-dist/fonts/tfm/public/newtx/ntxexx.tfm
INPUT c:/texlive/2020/texmf-dist/fonts/vf/public/newtx/ntxexx.vf
INPUT c:/texlive/2020/texmf-dist/fonts/tfm/public/newtx/txexs.tfm
INPUT c:/texlive/2020/texmf-dist/fonts/vf/public/newpx/zplmi.vf
INPUT c:/texlive/2020/texmf-dist/fonts/tfm/public/newpx/NewPXMI_gnu.tfm
INPUT c:/texlive/2020/texmf-dist/fonts/tfm/public/newpx/NewPXMI.tfm
INPUT c:/texlive/2020/texmf-dist/fonts/tfm/public/newtx/stxscr.tfm
INPUT main.mw
OUTPUT main.mw
OUTPUT main.mw
INPUT main.mw
OUTPUT main.mw
OUTPUT main.mw
INPUT main.mw
OUTPUT main.mw
INPUT chapters/appendix.tex
INPUT chapters/appendix.tex
INPUT c:/texlive/2020/texmf-dist/fonts/tfm/public/newpx/zpl-Bold-lf-t1.tfm
OUTPUT main.mw
INPUT main.mw
OUTPUT main.mw
INPUT c:/texlive/2020/texmf-dist/fonts/tfm/public/tex-gyre/ts1-qplr.tfm
OUTPUT main.mw
INPUT main.mw
OUTPUT main.mw
OUTPUT main.mw
INPUT main.mw
OUTPUT main.mw
INPUT c:/texlive/2020/texmf-dist/fonts/tfm/public/newpx/zpl-Regular-lf-sc-t1.tfm
INPUT c:/texlive/2020/texmf-dist/fonts/tfm/public/newpx/zpl-Italic-lf-t1.tfm
OUTPUT main.glsdefs
OUTPUT main.mw
INPUT main.mw
OUTPUT main.mw
OUTPUT main.mw
INPUT main.mw
OUTPUT main.mw
OUTPUT main.mw
INPUT main.mw
OUTPUT main.mw
OUTPUT main.mw
INPUT main.mw
OUTPUT main.mw
OUTPUT main.mw
INPUT main.mw
OUTPUT main.mw
OUTPUT main.mw
INPUT main.mw
OUTPUT main.mw
OUTPUT main.mw
INPUT main.mw
OUTPUT main.mw
OUTPUT main.mw
INPUT main.mw
OUTPUT main.mw
OUTPUT main.mw
INPUT main.mw
OUTPUT main.mw
OUTPUT main.mw
INPUT main.mw
OUTPUT main.mw
OUTPUT main.mw
INPUT main.mw
OUTPUT main.mw
OUTPUT main.mw
INPUT main.mw
OUTPUT main.mw
OUTPUT main.mw
INPUT main.mw
OUTPUT main.mw
OUTPUT main.mw
INPUT main.mw
OUTPUT main.mw
OUTPUT main.mw
INPUT main.mw
OUTPUT main.mw
OUTPUT main.mw
INPUT main.mw
OUTPUT main.mw
OUTPUT main.mw
INPUT main.mw
OUTPUT main.mw
OUTPUT main.mw
INPUT main.mw
OUTPUT main.mw
OUTPUT main.mw
INPUT main.mw
OUTPUT main.mw
OUTPUT main.mw
INPUT main.mw
OUTPUT main.mw
OUTPUT main.mw
INPUT main.mw
OUTPUT main.mw
OUTPUT main.mw
INPUT main.mw
OUTPUT main.mw
OUTPUT main.mw
INPUT main.mw
OUTPUT main.mw
OUTPUT main.mw
INPUT main.mw
OUTPUT main.mw
OUTPUT main.mw
INPUT main.mw
OUTPUT main.mw
OUTPUT main.mw
INPUT main.mw
OUTPUT main.mw
OUTPUT main.mw
INPUT main.mw
OUTPUT main.mw
OUTPUT main.mw
INPUT main.mw
OUTPUT main.mw
OUTPUT main.mw
INPUT main.mw
OUTPUT main.mw
OUTPUT main.mw
INPUT main.mw
OUTPUT main.mw
OUTPUT main.mw
INPUT main.mw
OUTPUT main.mw
OUTPUT main.mw
INPUT main.mw
OUTPUT main.mw
OUTPUT main.mw
INPUT main.mw
OUTPUT main.mw
OUTPUT main.mw
INPUT main.mw
OUTPUT main.mw
OUTPUT main.mw
INPUT main.mw
OUTPUT main.mw
OUTPUT main.mw
INPUT main.mw
OUTPUT main.mw
OUTPUT main.mw
INPUT main.mw
OUTPUT main.mw
OUTPUT main.mw
INPUT main.mw
OUTPUT main.mw
OUTPUT main.mw
INPUT main.mw
OUTPUT main.mw
OUTPUT main.mw
INPUT main.mw
OUTPUT main.mw
OUTPUT main.mw
INPUT main.mw
OUTPUT main.mw
OUTPUT main.mw
INPUT main.mw
OUTPUT main.mw
OUTPUT main.mw
INPUT main.mw
OUTPUT main.mw
OUTPUT main.mw
INPUT main.mw
OUTPUT main.mw
OUTPUT main.mw
INPUT main.mw
OUTPUT main.mw
OUTPUT main.mw
INPUT main.mw
OUTPUT main.mw
OUTPUT main.mw
INPUT main.mw
OUTPUT main.mw
OUTPUT main.mw
INPUT main.mw
OUTPUT main.mw
OUTPUT main.mw
INPUT main.mw
OUTPUT main.mw
OUTPUT main.mw
INPUT main.mw
OUTPUT main.mw
OUTPUT main.mw
INPUT main.mw
OUTPUT main.mw
OUTPUT main.mw
INPUT main.mw
OUTPUT main.mw
OUTPUT main.mw
INPUT main.mw
OUTPUT main.mw
OUTPUT main.mw
INPUT main.mw
OUTPUT main.mw
OUTPUT main.mw
INPUT main.mw
OUTPUT main.mw
OUTPUT main.mw
INPUT main.mw
OUTPUT main.mw
OUTPUT main.mw
INPUT main.mw
OUTPUT main.mw
OUTPUT main.mw
INPUT main.mw
OUTPUT main.mw
OUTPUT main.mw
INPUT main.mw
OUTPUT main.mw
OUTPUT main.mw
INPUT main.mw
OUTPUT main.mw
OUTPUT main.mw
INPUT main.mw
OUTPUT main.mw
OUTPUT main.mw
INPUT main.mw
OUTPUT main.mw
OUTPUT main.mw
INPUT main.mw
OUTPUT main.mw
OUTPUT main.mw
INPUT main.mw
OUTPUT main.mw
OUTPUT main.mw
INPUT main.mw
OUTPUT main.mw
OUTPUT main.mw
INPUT main.mw
OUTPUT main.mw
OUTPUT main.mw
INPUT main.mw
OUTPUT main.mw
OUTPUT main.mw
INPUT main.mw
OUTPUT main.mw
OUTPUT main.mw
INPUT main.mw
OUTPUT main.mw
OUTPUT main.mw
INPUT main.mw
OUTPUT main.mw
OUTPUT main.mw
INPUT main.mw
OUTPUT main.mw
OUTPUT main.mw
INPUT main.mw
OUTPUT main.mw
OUTPUT main.mw
INPUT main.mw
OUTPUT main.mw
OUTPUT main.mw
INPUT main.mw
OUTPUT main.mw
OUTPUT main.mw
INPUT main.mw
OUTPUT main.mw
OUTPUT main.mw
INPUT c:/texlive/2020/texmf-dist/fonts/vf/public/newpx/zplmia.vf
INPUT c:/texlive/2020/texmf-dist/fonts/tfm/public/newpx/pxmiaX.tfm
INPUT c:/texlive/2020/texmf-dist/fonts/tfm/public/newtx/txmiaSTbb.tfm
INPUT main.mw
OUTPUT main.mw
OUTPUT main.mw
INPUT main.mw
OUTPUT main.mw
OUTPUT main.mw
INPUT main.mw
OUTPUT main.mw
OUTPUT main.idx
INPUT main.ind
INPUT main.ind
OUTPUT main.mw
INPUT main.mw
OUTPUT main.mw
OUTPUT main.glsdefs
INPUT main.aux
OUTPUT main.mw
INPUT main.mw
OUTPUT main.mw
OUTPUT main.mw
INPUT main.mw
OUTPUT main.mw
OUTPUT main.mw
INPUT main.mw
OUTPUT main.mw
OUTPUT main.mw
INPUT main.mw
OUTPUT main.mw
OUTPUT main.mw
INPUT main.mw
OUTPUT main.mw
OUTPUT main.mw
INPUT main.mw
OUTPUT main.mw
OUTPUT main.mw
INPUT main.mw
OUTPUT main.mw
OUTPUT main.mw
INPUT main.mw
OUTPUT main.mw
OUTPUT main.mw
INPUT main.mw
OUTPUT main.mw
OUTPUT main.mw
INPUT main.mw
OUTPUT main.mw
OUTPUT main.mw
INPUT main.mw
OUTPUT main.mw
OUTPUT main.mw
INPUT main.mw
OUTPUT main.mw
OUTPUT main.mw
INPUT main.mw
OUTPUT main.mw
OUTPUT main.mw
INPUT main.mw
OUTPUT main.mw
OUTPUT main.mw
INPUT main.mw
OUTPUT main.mw
OUTPUT main.mw
INPUT main.mw
OUTPUT main.mw
OUTPUT main.mw
INPUT main.mw
OUTPUT main.mw
OUTPUT main.mw
INPUT main.mw
OUTPUT main.mw
OUTPUT main.mw
INPUT main.mw
OUTPUT main.mw
OUTPUT main.mw
INPUT main.mw
OUTPUT main.mw
OUTPUT main.mw
INPUT main.mw
OUTPUT main.mw
OUTPUT main.mw
INPUT main.mw
OUTPUT main.mw
OUTPUT main.mw
INPUT main.mw
OUTPUT main.mw
OUTPUT main.mw
INPUT main.mw
OUTPUT main.mw
OUTPUT main.mw
INPUT main.mw
OUTPUT main.mw
OUTPUT main.mw
INPUT main.mw
OUTPUT main.mw
OUTPUT main.mw
INPUT main.mw
OUTPUT main.mw
OUTPUT main.mw
INPUT main.mw
OUTPUT main.mw
OUTPUT main.mw
INPUT main.mw
OUTPUT main.mw
OUTPUT main.mw
INPUT main.mw
OUTPUT main.mw
OUTPUT main.mw
INPUT main.mw
OUTPUT main.mw
OUTPUT main.mw
INPUT main.mw
OUTPUT main.mw
OUTPUT main.mw
INPUT main.mw
OUTPUT main.mw
OUTPUT main.mw
INPUT main.mw
OUTPUT main.mw
OUTPUT main.mw
INPUT main.mw
OUTPUT main.mw
OUTPUT main.mw
INPUT main.mw
OUTPUT main.mw
OUTPUT main.mw
INPUT main.mw
OUTPUT main.mw
OUTPUT main.mw
INPUT main.mw
OUTPUT main.mw
OUTPUT main.mw
INPUT main.mw
OUTPUT main.mw
OUTPUT main.mw
INPUT main.mw
OUTPUT main.mw
OUTPUT main.mw
INPUT main.mw
OUTPUT main.mw
OUTPUT main.mw
INPUT main.mw
OUTPUT main.mw
OUTPUT main.mw
INPUT main.mw
OUTPUT main.mw
OUTPUT main.mw
INPUT main.mw
OUTPUT main.mw
OUTPUT main.mw
INPUT main.mw
OUTPUT main.mw
OUTPUT main.mw
INPUT main.mw
OUTPUT main.mw
OUTPUT main.mw
INPUT main.mw
OUTPUT main.mw
OUTPUT main.mw
INPUT main.mw
OUTPUT main.mw
OUTPUT main.mw
INPUT main.mw
OUTPUT main.mw
OUTPUT main.mw
INPUT main.mw
OUTPUT main.mw
OUTPUT main.mw
INPUT main.mw
OUTPUT main.mw
OUTPUT main.mw
INPUT main.mw
OUTPUT main.mw
OUTPUT main.mw
INPUT main.mw
OUTPUT main.mw
OUTPUT main.mw
INPUT main.mw
OUTPUT main.mw
OUTPUT main.mw
INPUT main.mw
OUTPUT main.mw
OUTPUT main.mw
INPUT main.mw
OUTPUT main.mw
OUTPUT main.mw
INPUT main.mw
OUTPUT main.mw
OUTPUT main.mw
INPUT main.mw
OUTPUT main.mw
OUTPUT main.mw
INPUT main.mw
OUTPUT main.mw
OUTPUT main.mw
INPUT main.mw
OUTPUT main.mw
OUTPUT main.mw
INPUT main.mw
OUTPUT main.mw
OUTPUT main.mw
INPUT main.mw
OUTPUT main.mw
OUTPUT main.mw
INPUT main.mw
OUTPUT main.mw
OUTPUT main.mw
INPUT main.mw
OUTPUT main.mw
OUTPUT main.mw
INPUT main.mw
OUTPUT main.mw
OUTPUT main.mw
INPUT main.mw
OUTPUT main.mw
OUTPUT main.mw
INPUT main.mw
OUTPUT main.mw
OUTPUT main.mw
INPUT main.mw
OUTPUT main.mw
OUTPUT main.mw
INPUT main.mw
OUTPUT main.mw
OUTPUT main.mw
INPUT main.mw
OUTPUT main.mw
OUTPUT main.mw
INPUT main.mw
OUTPUT main.mw
OUTPUT main.mw
INPUT main.mw
OUTPUT main.mw
OUTPUT main.mw
INPUT main.mw
OUTPUT main.mw
OUTPUT main.mw
INPUT main.mw
OUTPUT main.mw
OUTPUT main.mw
INPUT main.mw
OUTPUT main.mw
OUTPUT main.mw
INPUT main.mw
OUTPUT main.mw
OUTPUT main.mw
INPUT main.mw
OUTPUT main.mw
OUTPUT main.mw
INPUT main.mw
OUTPUT main.mw
OUTPUT main.mw
INPUT main.mw
OUTPUT main.mw
OUTPUT main.mw
INPUT main.mw
OUTPUT main.mw
OUTPUT main.mw
INPUT main.mw
OUTPUT main.mw
OUTPUT main.mw
INPUT main.mw
OUTPUT main.mw
OUTPUT main.mw
INPUT main.mw
OUTPUT main.mw
OUTPUT main.mw
INPUT main.mw
OUTPUT main.mw
OUTPUT main.mw
INPUT main.mw
OUTPUT main.mw
OUTPUT main.mw
INPUT main.mw
OUTPUT main.mw
OUTPUT main.mw
INPUT main.mw
OUTPUT main.mw
OUTPUT main.mw
INPUT main.mw
OUTPUT main.mw
OUTPUT main.mw
INPUT main.mw
OUTPUT main.mw
OUTPUT main.mw
INPUT main.mw
OUTPUT main.mw
OUTPUT main.mw
INPUT main.mw
OUTPUT main.mw
OUTPUT main.mw
INPUT main.mw
OUTPUT main.mw
OUTPUT main.mw
INPUT main.mw
OUTPUT main.mw
OUTPUT main.mw
INPUT main.mw
OUTPUT main.mw
OUTPUT main.mw
INPUT main.mw
OUTPUT main.mw
OUTPUT main.mw
INPUT main.mw
OUTPUT main.mw
OUTPUT main.mw
INPUT main.mw
OUTPUT main.mw
OUTPUT main.mw
INPUT main.mw
OUTPUT main.mw
OUTPUT main.mw
INPUT main.mw
OUTPUT main.mw
OUTPUT main.mw
INPUT main.mw
OUTPUT main.mw
OUTPUT main.mw
INPUT main.mw
OUTPUT main.mw
OUTPUT main.mw
INPUT main.mw
OUTPUT main.mw
OUTPUT main.mw
INPUT main.mw
OUTPUT main.mw
OUTPUT main.mw
INPUT main.mw
OUTPUT main.mw
OUTPUT main.mw
INPUT main.mw
OUTPUT main.mw
OUTPUT main.mw
INPUT main.mw
OUTPUT main.mw
OUTPUT main.mw
INPUT main.mw
OUTPUT main.mw
OUTPUT main.mw
INPUT main.mw
OUTPUT main.mw
OUTPUT main.mw
INPUT main.mw
OUTPUT main.mw
OUTPUT main.mw
INPUT main.mw
OUTPUT main.mw
OUTPUT main.mw
INPUT main.mw
OUTPUT main.mw
OUTPUT main.mw
INPUT main.mw
OUTPUT main.mw
OUTPUT main.mw
INPUT main.mw
OUTPUT main.mw
OUTPUT main.mw
INPUT main.mw
OUTPUT main.mw
OUTPUT main.mw
INPUT main.mw
OUTPUT main.mw
OUTPUT main.mw
INPUT main.mw
OUTPUT main.mw
OUTPUT main.mw
INPUT main.mw
OUTPUT main.mw
OUTPUT main.mw
INPUT main.mw
OUTPUT main.mw
OUTPUT main.mw
INPUT main.mw
OUTPUT main.mw
OUTPUT main.mw
INPUT main.mw
OUTPUT main.mw
OUTPUT main.mw
INPUT main.mw
OUTPUT main.mw
OUTPUT main.mw
INPUT main.mw
OUTPUT main.mw
OUTPUT main.mw
INPUT main.mw
OUTPUT main.mw
OUTPUT main.mw
INPUT main.mw
OUTPUT main.mw
OUTPUT main.mw
INPUT main.mw
OUTPUT main.mw
OUTPUT main.mw
INPUT main.mw
OUTPUT main.mw
OUTPUT main.mw
INPUT main.mw
OUTPUT main.mw
OUTPUT main.mw
INPUT main.mw
OUTPUT main.mw
OUTPUT main.mw
INPUT main.mw
OUTPUT main.mw
OUTPUT main.mw
INPUT main.mw
OUTPUT main.mw
OUTPUT main.mw
INPUT main.mw
OUTPUT main.mw
OUTPUT main.mw
INPUT main.mw
OUTPUT main.mw
OUTPUT main.mw
INPUT main.mw
OUTPUT main.mw
OUTPUT main.mw
INPUT main.mw
OUTPUT main.mw
OUTPUT main.mw
INPUT main.mw
OUTPUT main.mw
OUTPUT main.mw
INPUT main.mw
OUTPUT main.mw
OUTPUT main.mw
INPUT main.mw
OUTPUT main.mw
OUTPUT main.mw
INPUT main.mw
OUTPUT main.mw
OUTPUT main.mw
INPUT main.mw
OUTPUT main.mw
OUTPUT main.mw
INPUT main.mw
OUTPUT main.mw
OUTPUT main.mw
INPUT main.mw
OUTPUT main.mw
OUTPUT main.mw
INPUT main.mw
OUTPUT main.mw
OUTPUT main.mw
INPUT main.mw
OUTPUT main.mw
OUTPUT main.mw
INPUT main.mw
OUTPUT main.mw
OUTPUT main.mw
INPUT main.mw
OUTPUT main.mw
OUTPUT main.mw
INPUT main.mw
OUTPUT main.mw
OUTPUT main.mw
INPUT main.mw
OUTPUT main.mw
OUTPUT main.mw
INPUT main.mw
OUTPUT main.mw
OUTPUT main.mw
INPUT main.mw
OUTPUT main.mw
OUTPUT main.mw
INPUT main.mw
OUTPUT main.mw
OUTPUT main.mw
INPUT main.mw
OUTPUT main.mw
OUTPUT main.mw
INPUT main.mw
OUTPUT main.mw
OUTPUT main.mw
INPUT main.mw
OUTPUT main.mw
OUTPUT main.mw
INPUT main.mw
OUTPUT main.mw
OUTPUT main.mw
INPUT main.mw
OUTPUT main.mw
OUTPUT main.mw
INPUT main.mw
OUTPUT main.mw
OUTPUT main.mw
INPUT main.mw
OUTPUT main.mw
OUTPUT main.mw
INPUT main.mw
OUTPUT main.mw
OUTPUT main.mw
INPUT main.mw
OUTPUT main.mw
OUTPUT main.mw
INPUT main.mw
OUTPUT main.mw
OUTPUT main.mw
INPUT main.mw
OUTPUT main.mw
OUTPUT main.mw
INPUT main.mw
OUTPUT main.mw
OUTPUT main.mw
INPUT main.mw
OUTPUT main.mw
OUTPUT main.mw
INPUT main.mw
OUTPUT main.mw
OUTPUT main.mw
INPUT main.mw
OUTPUT main.mw
OUTPUT main.mw
INPUT main.mw
OUTPUT main.mw
OUTPUT main.mw
INPUT main.mw
OUTPUT main.mw
OUTPUT main.mw
INPUT main.mw
OUTPUT main.mw
OUTPUT main.mw
INPUT main.mw
OUTPUT main.mw
OUTPUT main.mw
INPUT main.mw
OUTPUT main.mw
OUTPUT main.mw
INPUT main.mw
OUTPUT main.mw
OUTPUT main.mw
INPUT main.mw
OUTPUT main.mw
OUTPUT main.mw
INPUT main.mw
OUTPUT main.mw
OUTPUT main.mw
INPUT main.mw
OUTPUT main.mw
OUTPUT main.bcf
INPUT main.run.xml
OUTPUT main.run.xml
OUTPUT main.glo
OUTPUT main.nlo
OUTPUT main.toc
OUTPUT main.lof
OUTPUT main.lot
INPUT c:/texlive/2020/texmf-dist/fonts/enc/dvips/newtx/ntx-ec-lf-sc.enc
INPUT c:/texlive/2020/texmf-dist/fonts/enc/dvips/newtx/ntx-ot1-tlf.enc
INPUT c:/texlive/2020/texmf-dist/fonts/enc/dvips/newtx/ntx-ec-lf.enc
INPUT c:/texlive/2020/texmf-dist/fonts/enc/dvips/base/8r.enc
INPUT c:/texlive/2020/texmf-dist/fonts/enc/dvips/newtx/ntx-ecth-tlf.enc
INPUT c:/texlive/2020/texmf-dist/fonts/enc/dvips/tex-gyre/q-ec.enc
INPUT c:/texlive/2020/texmf-dist/fonts/enc/dvips/tex-gyre/q-ts1.enc
INPUT c:/texlive/2020/texmf-dist/fonts/type1/public/newpx/NewPXMI.pfb
INPUT c:/texlive/2020/texmf-dist/fonts/type1/public/newpx/NewPXMI_gnu.pfb
INPUT c:/texlive/2020/texmf-dist/fonts/type1/public/ccicons/ccicons.pfb
INPUT c:/texlive/2020/texmf-dist/fonts/type1/public/bera/fvmb8a.pfb
INPUT c:/texlive/2020/texmf-dist/fonts/type1/public/bera/fvmr8a.pfb
INPUT c:/texlive/2020/texmf-dist/fonts/type1/public/amsfonts/symbols/msam10.pfb
INPUT c:/texlive/2020/texmf-dist/fonts/type1/public/newpx/pxmiaX.pfb
INPUT c:/texlive/2020/texmf-dist/fonts/type1/public/newpx/pxsys.pfb
INPUT c:/texlive/2020/texmf-dist/fonts/type1/public/tex-gyre/qhvb.pfb
INPUT c:/texlive/2020/texmf-dist/fonts/type1/public/tex-gyre/qhvr.pfb
INPUT c:/texlive/2020/texmf-dist/fonts/type1/public/tex-gyre/qplr.pfb
INPUT c:/texlive/2020/texmf-dist/fonts/type1/public/newtx/txexs.pfb
INPUT c:/texlive/2020/texmf-dist/fonts/type1/public/newpx/zplb.pfb
INPUT c:/texlive/2020/texmf-dist/fonts/type1/public/newpx/zplbi.pfb
INPUT c:/texlive/2020/texmf-dist/fonts/type1/public/newpx/zplr.pfb
INPUT c:/texlive/2020/texmf-dist/fonts/type1/public/newpx/zplri.pfb
